contrast	orientation	run	subject	onset	duration	trial_type
0.8	67.5	17	1	5	5	con-0.8_ori-67.5
0.8	45	17	1	20.8	5	con-0.8_ori-45
0.2	90	17	1	35.8	5	con-0.2_ori-90
0.2	45	17	1	50	5	con-0.2_ori-45
0.2	67.5	17	1	64.2	5	con-0.2_ori-67.5
0.8	90	17	1	79.4	5	con-0.8_ori-90
0.2	135	17	1	94.8	5	con-0.2_ori-135
0.2	112.5	17	1	110.2	5	con-0.2_ori-112.5
0.2	157.5	17	1	126	5	con-0.2_ori-157.5
0.8	22.5	17	1	141.8	5	con-0.8_ori-22.5
0.8	90	17	1	157.4	5	con-0.8_ori-90
0.2	22.5	17	1	174.4	5	con-0.2_ori-22.5
0.8	157.5	17	1	189	5	con-0.8_ori-157.5
0.8	0	17	1	203.8	5	con-0.8_ori-0
0.8	135	17	1	218.4	5	con-0.8_ori-135
0.8	112.5	17	1	234.8	5	con-0.8_ori-112.5
0.2	135	17	1	248.8	5	con-0.2_ori-135
0.2	112.5	17	1	263.4	5	con-0.2_ori-112.5
0.2	0	17	1	276.6	5	con-0.2_ori-0
0.8	45	17	1	292.8	5	con-0.8_ori-45
0.8	0	17	1	306.2	5	con-0.8_ori-0
0.2	45	17	1	320.4	5	con-0.2_ori-45
0.2	90	17	1	333.4	5	con-0.2_ori-90
0.8	157.5	17	1	349.4	5	con-0.8_ori-157.5
0.8	22.5	17	1	364.4	5	con-0.8_ori-22.5
0.2	67.5	17	1	381	5	con-0.2_ori-67.5
0.2	157.5	17	1	396.4	5	con-0.2_ori-157.5
0.8	67.5	17	1	411.4	5	con-0.8_ori-67.5
0.8	135	17	1	425.2	5	con-0.8_ori-135
0.2	22.5	17	1	438.8	5	con-0.2_ori-22.5
0.8	112.5	17	1	455.6	5	con-0.8_ori-112.5
0.2	0	17	1	470	5	con-0.2_ori-0
