contrast,orientation,freq_change_feature,run,subject,trial,n_isi_sec,n_stim_sec,n_stim_flip,n_isi_flip,freq_change_flip,freq_change_vbl,trial_start,trial_end,rt,onset,duration,response
0.8,45,1,4,2,1,8.2,5,25,41,7,7941.03184739402,7939.83201835166,7944.83149015566,0.513584672101388,5.00729589491402,4.99947180400795,1!
0.2,135,2,4,2,2,8,5,25,40,22,7957.23010777241,7953.03038088399,7958.03001132707,NaN,18.2056584272505,4.99963044307697,
0.8,112.5,1,4,2,3,10,5,25,50,10,7967.82890055313,7966.02910305831,7971.02857696549,0.511077093179665,31.2043806015663,4.99947390717807,2@
0.8,135,2,4,2,4,10.4,5,25,52,20,7984.82713613751,7981.02749623683,7986.02694670869,-0.166006314871993,46.2027737800863,4.99945047186156,2@
0.8,157.5,2,4,2,5,10.4,5,25,52,23,8000.82530233061,7996.42579297001,8001.42521519931,NaN,61.6010705132639,4.99942222929894,
0.8,135,1,4,2,6,10.8,5,25,54,14,8014.42381178436,8011.82409090499,8016.82354918863,0.536652835823588,76.9993684482515,4.99945828363343,2@
0.8,0,1,4,2,7,9.6,5,25,48,16,8030.62211650692,8027.62239484904,8032.62189910195,0.589354179405746,92.7976723922957,4.99950425290899,2@
0.8,112.5,2,4,2,8,9.8,5,25,49,14,8044.82046954761,8042.22078742665,8047.22020064237,0.953132370482308,107.39606496991,4.99941321571532,1!
0.2,22.5,1,4,2,9,10.4,5,25,52,16,8060.01887414333,8057.01916738525,8062.01866683091,0.4960872034153,122.194444928507,4.9994994456647,2@
0.2,0,2,4,2,10,10,5,25,50,13,8074.81726788872,8072.41753697157,8077.41690437489,NaN,137.592814514829,4.99936740332123,
0.2,45,2,4,2,11,9.6,5,25,48,9,8089.01567822709,8087.41589611012,8092.4152639027,1.10948649614966,152.59117365338,4.99936779257951,1!
0.8,90,2,4,2,12,8.8,5,25,44,12,8104.21398848064,8102.01428877654,8107.0136712025,0.764307411269328,167.189566319799,4.9993824259609,1!
0.2,157.5,2,4,2,13,10.6,5,25,53,6,8116.81264425489,8115.81277315655,8120.81213018018,0.590872845377817,180.988050699812,4.99935702362745,1!
0.8,45,2,4,2,14,9.2,5,25,46,22,8135.61056632345,8131.41099897546,8136.41045064913,NaN,196.586276518714,4.99945167367241,
0.2,157.5,1,4,2,15,9.2,5,25,46,6,8146.60932996025,8145.60943692144,8150.60892765397,0.771669105341971,210.784714464698,4.99949073253356,2@
0.2,67.5,2,4,2,16,10.8,5,25,54,15,8162.60764516462,8159.8078832801,8164.80733946057,0.679586193038631,224.983160823361,4.99945618046422,1!
0.8,22.5,2,4,2,17,11.2,5,25,56,24,8180.20572371431,8175.60615717887,8180.60561516205,NaN,240.781434722127,4.99945798318095,
0.8,90,1,4,2,18,10.8,5,25,54,23,8196.20385240558,8191.8043790993,8196.80381755305,NaN,256.97965664256,4.99943845375037,
0.2,0,1,4,2,19,11.6,5,25,58,12,8209.80243907569,8207.60266862161,8212.60211548804,0.705080356096005,272.77794616487,4.99944686642812,2@
0.2,112.5,1,4,2,20,11.4,5,25,57,14,8226.80060490026,8224.20084427232,8229.20028032245,0.586078431524584,289.376121815576,4.99943605012777,2@
0.8,22.5,1,4,2,21,9.4,5,25,47,17,8243.79869753719,8240.59904365879,8245.59848661934,0.48489954361321,305.774321202052,4.99944296054127,2@
0.2,67.5,1,4,2,22,11.8,5,25,59,21,8258.99700478621,8254.99726317561,8259.99689512095,13.9121310815408,320.172540718864,4.9996319453403,2@
0.8,157.5,1,4,2,23,12,5,25,60,13,8274.19532405335,8271.79558124093,8276.79506416169,0.768721663547694,336.970858784189,4.99948292076078,2@
0.2,135,1,4,2,24,9.6,5,25,48,10,8290.59356880819,8288.79374968077,8293.7932713259,0.6224432219351,353.969027224026,4.99952164513343,2@
0.8,67.5,1,4,2,25,9,5,25,45,22,8307.59167655657,8303.39212843756,8308.39158551938,NaN,368.567405980813,4.99945708182167,
0.2,45,1,4,2,26,8.4,5,25,42,10,8319.19048630622,8317.39063428587,8322.39007544369,0.654998038688063,382.565911829126,4.99944115782637,2@
0.8,0,2,4,2,27,8.6,5,25,43,11,8332.78895745889,8330.78915756044,8335.78857768657,0.633769390471571,395.964435103702,4.99942012612883,1!
0.2,90,2,4,2,28,10.2,5,25,51,12,8346.58741162933,8344.38767001872,8349.38710096115,NaN,409.562947561975,4.99943094243099,
0.8,67.5,2,4,2,29,10,5,25,50,15,8362.43574702545,8359.5860100171,8364.63546965277,0.589201672237323,424.761287560354,5.04945963567116,1!
0.2,112.5,2,4,2,30,9.2,5,25,46,19,8378.2339511644,8374.6343660897,8379.63381295612,0.679154285509867,439.809643632954,4.99944686642812,1!
0.2,90,1,4,2,31,11,5,25,55,13,8391.23254474493,8388.83284549817,8393.83223648038,0.656991986923458,454.008123041423,4.99939098220966,2@
0.2,22.5,2,4,2,32,15,5,25,75,5,8405.630937623,8404.83102535521,8409.83049866148,NaN,470.006302898468,4.99947330627219,
