contrast,orientation,freq_change_feature,run,subject,trial,n_isi_sec,n_stim_sec,n_stim_flip,n_isi_flip,freq_change_flip,freq_change_vbl,trial_start,trial_end,rt,onset,duration,response
0.2,90,1,1,2,1,9.2,5,25,46,9,6007.70206411061,6006.10227472801,6011.10171077814,NaN,5.00706424581858,4.99943605012777,
0.8,22.5,1,1,2,2,11.2,5,25,56,13,6022.70044677329,6020.30072138713,6025.30015443273,0.987732813349794,19.2055109049343,4.99943304559929,2@
0.2,157.5,1,1,2,3,10.8,5,25,54,11,6038.49874440782,6036.49892858538,6041.49836163098,0.843586084229173,35.4037181031817,4.9994330456002,2@
0.2,90,2,1,2,4,9.6,5,25,48,15,6055.09690864132,6052.29720098188,6057.29670823932,0.860352851747848,51.2019904996832,4.99950725743747,1!
0.8,67.5,1,1,2,5,10.6,5,25,53,13,6069.29536070859,6066.89558184184,6071.89504973996,1.04800334103584,65.800371359639,4.99946789812293,2@
0.8,157.5,1,1,2,6,8.4,5,25,42,16,6085.49357241363,6082.49387076324,6087.49336570211,0.67508104713761,81.3986602810437,4.99949493887289,2@
0.8,22.5,2,1,2,7,8.2,5,25,41,5,6096.69232673639,6095.89243970664,6100.89194092407,2.57456697242742,94.7972292244413,4.99950121743404,1!
0.2,112.5,1,1,2,8,10.8,5,25,54,12,6111.29078721634,6109.09104599602,6114.09048285767,0.642379165402417,107.99583551382,4.99943686165079,2@
0.2,67.5,2,1,2,9,9.2,5,25,46,8,6126.28909626808,6124.88926422118,6129.88870628036,0.889171080819324,123.794053738985,4.99944205918291,1!
0.8,157.5,2,1,2,10,8.6,5,25,43,8,6140.48749725837,6139.08770276807,6144.0871439259,NaN,137.992492285875,4.99944115782455,
0.2,45,2,1,2,11,10,5,25,50,7,6153.88591357175,6152.68601752842,6157.68564196244,NaN,151.590807046219,4.99962443402183,
0.2,135,1,1,2,12,8,5,25,40,23,6172.08408441521,6167.68437435215,6172.68403033371,NaN,166.589163869952,4.9996559815645,
0.2,0,2,1,2,13,12,5,25,60,12,6182.88287419141,6180.68315811929,6185.68257884632,0.612272594799833,179.587947637089,4.99942072703561,1!
0.8,112.5,1,1,2,14,9.6,5,25,48,18,6201.080897813,6197.68123912737,6202.68071303454,0.635192635300882,196.586028645169,4.99947390717807,2@
0.8,0,1,1,2,15,11.8,5,25,59,10,6214.07946375187,6212.27966235116,6217.27911432529,0.65006354576326,211.184451868967,4.9994519741249,2@
0.8,90,2,1,2,16,9.2,5,25,46,20,6232.87741406299,6229.07784851772,6234.0773510268,0.735914623337521,227.98263803552,4.99950250908023,1!
0.8,112.5,2,1,2,17,10.4,5,25,52,11,6245.27602236571,6243.27628586279,6248.27567714546,0.58179826999276,242.181075380598,4.99939128266305,1!
0.8,67.5,2,1,2,18,10.8,5,25,54,15,6261.47429716583,6258.67454263575,6263.6740975444,NaN,257.579332153556,4.99955490864613,
0.2,112.5,2,1,2,19,10,5,25,50,5,6275.27282957176,6274.47287211828,6279.47229434758,1.98608200798844,273.377661636086,4.99942222929985,2@
0.2,22.5,1,1,2,20,9,5,25,45,6,6290.47111927675,6289.471200399,6294.47068872791,0.77220481265249,288.375989916805,4.99948832891096,1!
0.8,45,2,1,2,21,11.6,5,25,58,10,6305.26944154841,6303.46973268716,6308.46910834628,NaN,302.374522204963,4.99937565911841,
0.8,135,1,1,2,22,9.6,5,25,48,19,6323.66746787409,6320.06784884821,6325.06730112279,0.572864606962867,318.972638366018,4.99945227457738,2@
0.2,157.5,2,1,2,23,10.2,5,25,51,6,6335.66613656781,6334.66627808107,6339.66571533301,1.26360074632521,333.571067598872,4.99943725193862,2@
0.8,0,2,1,2,24,11.4,5,25,57,10,6351.66438312537,6349.86461297175,6354.86407155583,NaN,348.769402489552,4.99945858408682,
0.2,67.5,1,1,2,25,8.8,5,25,44,8,6367.66262367388,6366.26280184238,6371.26224570428,0.691531137424136,365.16759136018,4.99944386189964,2@
0.2,22.5,2,1,2,26,9.4,5,25,47,6,6381.06115686339,6380.06126863183,6385.06070648467,1.11288792209871,378.966058149632,4.99943785284449,1!
0.2,0,1,1,2,27,10,5,25,50,15,6397.25939380647,6394.45969756423,6399.45921999303,0.66480436017082,393.364487082033,4.99952242879954,2@
0.8,90,1,1,2,28,11,5,25,55,5,6410.25796485303,6409.45809494909,6414.45752799469,0.8498424125155,408.362884466892,4.99943304559929,2@
0.8,135,2,1,2,29,9.8,5,25,49,10,6427.25617679663,6425.45632077541,6430.45576734138,NaN,424.361110293212,4.99944656597563,
0.8,45,1,1,2,30,10.4,5,25,52,5,6441.08791188321,6440.28798339097,6445.28744738321,0.7188831569174,439.192772908774,4.99946399223609,2@
0.2,135,2,1,2,31,10.4,5,25,52,7,6456.88617136024,6455.68631046988,6460.68575072634,1.17368574441662,454.591099987681,4.9994402564671,1!
0.2,45,1,1,2,32,15,5,25,75,16,6474.08432748151,6471.08462432886,6476.0841481112,0.626649861341321,469.989413846667,4.99952378234048,2@
