contrast	orientation	run	subject	onset	duration	trial_type
0.8	0	14	1	5.0018	4.9995	con-0.8_ori-0
0.8	157.5	14	1	18.6004	4.9994	con-0.8_ori-157.5
0.2	45	14	1	34.3986	4.9995	con-0.2_ori-45
0.8	67.5	14	1	49.797	4.9995	con-0.8_ori-67.5
0.8	90	14	1	64.3954	4.9995	con-0.8_ori-90
0.8	45	14	1	79.3939	4.9994	con-0.8_ori-45
0.2	0	14	1	95.3921	4.9995	con-0.2_ori-0
0.8	112.5	14	1	112.3903	4.9995	con-0.8_ori-112.5
0.2	22.5	14	1	128.7886	4.9995	con-0.2_ori-22.5
0.8	135	14	1	142.5871	4.9995	con-0.8_ori-135
0.8	90	14	1	156.7856	4.9994	con-0.8_ori-90
0.8	45	14	1	171.784	4.9995	con-0.8_ori-45
0.2	90	14	1	187.3823	4.9995	con-0.2_ori-90
0.2	45	14	1	202.7807	4.9995	con-0.2_ori-45
0.8	157.5	14	1	216.9792	4.9995	con-0.8_ori-157.5
0.2	112.5	14	1	231.1776	4.9995	con-0.2_ori-112.5
0.2	90	14	1	245.5761	4.9995	con-0.2_ori-90
0.8	22.5	14	1	261.7744	4.9994	con-0.8_ori-22.5
0.8	0	14	1	277.5728	4.9994	con-0.8_ori-0
0.8	67.5	14	1	292.7711	4.9994	con-0.8_ori-67.5
0.2	157.5	14	1	306.1697	4.9994	con-0.2_ori-157.5
0.2	67.5	14	1	320.7682	4.9994	con-0.2_ori-67.5
0.2	0	14	1	335.7665	4.9995	con-0.2_ori-0
0.8	112.5	14	1	349.765	4.9995	con-0.8_ori-112.5
0.2	135	14	1	365.1634	4.9995	con-0.2_ori-135
0.2	157.5	14	1	379.7618	4.9996	con-0.2_ori-157.5
0.2	112.5	14	1	396.36	4.9995	con-0.2_ori-112.5
0.8	135	14	1	409.3587	4.9995	con-0.8_ori-135
0.2	67.5	14	1	424.1571	4.9995	con-0.2_ori-67.5
0.2	22.5	14	1	437.3557	4.9995	con-0.2_ori-22.5
0.2	135	14	1	454.1539	4.9995	con-0.2_ori-135
0.8	22.5	14	1	469.9522	4.9995	con-0.8_ori-22.5
