contrast	orientation	run	subject	onset	duration	trial_type
0.2	157.5	13	1	5.0093	4.9995	con-0.2_ori-157.5
0.2	90	13	1	20.0077	4.9995	con-0.2_ori-90
0.8	0	13	1	36.0061	4.9994	con-0.8_ori-0
0.8	112.5	13	1	50.8045	4.9994	con-0.8_ori-112.5
0.8	45	13	1	65.2029	4.9994	con-0.8_ori-45
0.8	157.5	13	1	78.8014	4.9995	con-0.8_ori-157.5
0.8	135	13	1	91.8	4.9995	con-0.8_ori-135
0.2	22.5	13	1	106.3985	4.9995	con-0.2_ori-22.5
0.2	67.5	13	1	121.7969	4.9994	con-0.2_ori-67.5
0.8	157.5	13	1	137.1952	4.9995	con-0.8_ori-157.5
0.2	45	13	1	150.9937	4.9994	con-0.2_ori-45
0.2	135	13	1	165.9922	4.9995	con-0.2_ori-135
0.2	0	13	1	181.5905	4.9995	con-0.2_ori-0
0.8	90	13	1	198.5887	4.9995	con-0.8_ori-90
0.8	45	13	1	215.3869	4.9995	con-0.8_ori-45
0.2	67.5	13	1	228.5855	4.9995	con-0.2_ori-67.5
0.2	90	13	1	242.784	4.9995	con-0.2_ori-90
0.8	0	13	1	259.1823	4.9994	con-0.8_ori-0
0.8	67.5	13	1	273.3807	4.9995	con-0.8_ori-67.5
0.2	157.5	13	1	286.7793	4.9995	con-0.2_ori-157.5
0.2	112.5	13	1	302.5775	4.9994	con-0.2_ori-112.5
0.2	22.5	13	1	317.1761	4.9995	con-0.2_ori-22.5
0.2	0	13	1	333.3743	4.9995	con-0.2_ori-0
0.2	45	13	1	349.1726	4.9995	con-0.2_ori-45
0.8	22.5	13	1	365.7708	4.9995	con-0.8_ori-22.5
0.2	135	13	1	381.1693	4.9994	con-0.2_ori-135
0.8	112.5	13	1	396.3676	4.9995	con-0.8_ori-112.5
0.8	22.5	13	1	410.966	4.9995	con-0.8_ori-22.5
0.8	90	13	1	426.7644	4.9995	con-0.8_ori-90
0.2	112.5	13	1	441.7628	4.9995	con-0.2_ori-112.5
0.8	67.5	13	1	455.7611	4.9996	con-0.8_ori-67.5
0.8	135	13	1	469.9598	4.9994	con-0.8_ori-135
