contrast,orientation,freq_change_feature,run,subject,trial,n_isi_sec,n_stim_sec,n_stim_flip,n_isi_flip,freq_change_flip,freq_change_vbl,trial_start,trial_end,rt,onset,duration,response
0.8,0,2,14,1,1,8.6,5,25,43,13,11378.6345671965,11376.2348024517,11381.2342751555,0.681289547215783,5.00175915632462,4.99947270378289,1!
0.8,157.5,1,14,1,2,10.8,5,25,54,23,11394.2328858576,11389.8334270625,11394.8328359823,NaN,18.6003837671578,4.99940891979895,
0.2,45,1,14,1,3,10.4,5,25,52,24,11410.2312444421,11405.631657603,11410.6311312081,NaN,34.3986143076036,4.99947360514307,
0.8,67.5,1,14,1,4,9.6,5,25,48,10,11422.8298425623,11421.0300195295,11426.0294895292,0.701641979389024,49.7969762341127,4.99946999970052,2@
0.8,90,2,14,1,5,10,5,25,50,18,11439.0281008323,11435.6284727939,11440.6279382868,0.726594657933674,64.3954294985415,4.99946549289416,1!
0.8,45,2,14,1,6,11,5,25,55,23,11455.0263753267,11450.6269287624,11455.6263506895,NaN,79.3938854670541,4.99942192711023,
0.2,0,2,14,1,7,12,5,25,60,6,11467.6250815732,11466.625163597,11471.6246356999,0.9919944115627,95.3921203016544,4.9994721028761,1!
0.8,112.5,2,14,1,8,11.4,5,25,57,14,11486.2230697353,11483.6233140041,11488.6228329778,0.50716551993537,112.390270708769,4.99951897365099,1!
0.2,22.5,2,14,1,9,8.8,5,25,44,7,11501.2214653126,11500.0216107322,11505.0210846378,1.15195655439675,128.788567436828,4.99947390559828,1!
0.8,135,2,14,1,10,9.2,5,25,46,13,11516.2198798185,11513.8201469219,11518.8196145179,NaN,142.587103626474,4.99946759607155,
0.8,90,1,14,1,11,10,5,25,50,9,11529.6184625785,11528.0186560707,11533.0181038368,0.957506835320601,156.785612775289,4.99944776612756,2@
0.8,45,1,14,1,12,10.6,5,25,53,8,11544.4168473395,11543.0170363249,11548.0164882973,0.817270378271132,171.783993029474,4.99945197247871,2@
0.2,90,1,14,1,13,10.4,5,25,52,9,11560.2151843283,11558.6153498783,11563.6148832737,1.4120193492181,187.38230658294,4.99953339542662,1!
0.2,45,2,14,1,14,9.2,5,25,46,23,11578.4132328817,11574.0137268275,11579.0132001322,NaN,202.780683532133,4.99947330468967,
0.8,157.5,2,14,1,15,9.2,5,25,46,9,11589.8120433855,11588.2122257609,11593.2116927561,0.55867169425801,216.979182465522,4.99946699516295,1!
0.2,112.5,1,14,1,16,9.4,5,25,47,16,11605.4103088664,11602.4106471772,11607.4101679536,0.636384941260985,231.177603881861,4.99952077637317,2@
0.2,90,2,14,1,17,11.2,5,25,56,12,11619.0088964336,11616.8091521197,11621.8086437521,0.761223447405428,245.576108824323,4.99949163236488,1!
0.8,22.5,1,14,1,18,10.8,5,25,54,24,11637.6069281615,11633.0074608659,11638.0068707749,NaN,261.77441757053,4.99940990896357,
0.8,0,1,14,1,19,10.2,5,25,51,14,11651.4055462502,11648.8057972539,11653.8052167773,0.634000966118037,277.572753958477,4.99941952347945,2@
0.8,67.5,2,14,1,20,8.4,5,25,42,18,11667.4038380461,11664.004184118,11669.0035817084,0.556726806798906,292.771140822642,4.99939759035988,1!
0.2,157.5,2,14,1,21,9.6,5,25,48,20,11681.2023008743,11677.4027076886,11682.4021572575,0.65757203377143,306.169664393234,4.99944956884792,1!
0.2,67.5,1,14,1,22,10,5,25,50,10,11693.8009701649,11692.0011976084,11697.0006015083,0.57033951266385,320.768154313011,4.99940389989024,2@
0.2,0,1,14,1,23,9,5,25,45,6,11707.9994570802,11706.9995394045,11711.9989907761,0.603107292010463,335.766496109123,4.99945137157192,2@
0.8,112.5,1,14,1,24,10.4,5,25,52,17,11724.1977315747,11720.9980608719,11725.9975320734,0.538846858757097,349.765017576539,4.9994712015141,2@
0.2,135,1,14,1,25,9.6,5,25,48,18,11739.7960249977,11736.3964113812,11741.3959405703,0.656832917706197,365.163368085809,4.99952918907547,2@
0.2,157.5,1,14,1,26,11.6,5,25,58,20,11754.7944689481,11750.9948000481,11755.9943559775,0.517628819517995,379.761756752696,4.99955592945298,2@
0.2,112.5,2,14,1,27,8,5,25,40,21,11771.5927380852,11767.5930907671,11772.5926336151,NaN,396.360047471682,4.9995428480488,
0.8,135,1,14,1,28,9.8,5,25,49,23,11784.9912381696,11780.591699366,11785.5911654598,NaN,409.358656070666,4.99946609380095,
0.2,67.5,2,14,1,29,8.2,5,25,41,22,11799.5896977436,11795.3901469219,11800.3895985939,NaN,424.157103626476,4.9994516720235,
0.2,22.5,1,14,1,30,11.8,5,25,59,22,11812.7882802031,11808.5887224709,11813.5882026861,NaN,437.355679175555,4.999480215125,
0.2,135,2,14,1,31,10.8,5,25,54,15,11828.186639726,11825.386947691,11830.3864701453,0.62545894300456,454.153904395636,4.9995224542472,1!
0.8,22.5,2,14,1,32,15,5,25,75,10,11842.9850554337,11841.1852837785,11846.1847414596,0.593244298892387,469.95224048313,4.99945768109683,1!
