trial,n_isi_sec,direction,wedgeorring,n_stim_sec,run_type,n_stim_flip,n_isi_flip,trial_start,trial_end,rt,onset,duration
1,4,0,bar,28,multibar,420,60,90208.9228526652,90237.0038545875,NaN,16.3748270107753,28.0810019223427
2,4,90,bar,28,multibar,420,60,90241.1034816579,90269.1093625403,NaN,48.5554560035089,28.0058808824542
3,4,180,bar,28,multibar,420,60,90273.2006086096,90301.1980868579,NaN,80.652582955212,27.997478248275
4,16,270,bar,28,multibar,420,240,90305.272595262,90333.2785740941,NaN,112.724569607628,28.005978832065
5,4,45,bar,28,multibar,420,60,90349.4271997048,90377.4329880459,NaN,156.879174050453,28.0057883411064
6,4,135,bar,28,multibar,420,60,90381.5826442308,90409.5884860536,NaN,189.034618576421,28.0058418228
7,4,225,bar,28,multibar,420,60,90413.6796128407,90441.6854970282,NaN,221.131587186275,28.0058841874998
8,20,315,bar,28,multibar,420,300,90445.7767773497,90473.7828510065,NaN,253.228751695337,28.0060736567539
