contrast,orientation,freq_change_feature,run,subject,trial,n_isi_sec,n_stim_sec,n_stim_flip,n_isi_flip,freq_change_flip,freq_change_vbl,trial_start,trial_end,rt,onset,duration,response
0.8,308.571428571429,1,1,1,1,8.8,5,25,44,15,91389.8756181191,91387.0752259,91392.0759118478,1.34189130477898,5.12341350178758,5.00068594771437,2@
0.2,154.285714285714,1,1,1,2,9.8,5,25,49,8,91402.2772773134,91400.8770609229,91405.8777204302,1.1869329213514,18.9252485245961,5.00065950733551,2@
0.8,205.714285714286,2,1,1,3,9,5,25,45,12,91417.8792665918,91415.6790792256,91420.6796302673,0.888275251621963,33.7272668273508,5.00055104166677,1!
0.2,205.714285714286,1,1,1,4,11,5,25,55,13,91432.0811169981,91429.6808290984,91434.6814904084,0.870921044799616,47.7290167001047,5.00066131008498,2@
0.8,257.142857142857,2,1,1,5,10.4,5,25,52,15,91448.4832812638,91445.6829428269,91450.6836633274,0.371386455663014,63.7311304286122,5.00072050049494,1!
0.8,154.285714285714,1,1,1,6,10.8,5,25,54,20,91464.8854689653,91461.0849523562,91466.085626586,0.588549750886159,79.1331399579794,5.00067422981374,2@
0.8,51.4285714285714,1,1,1,7,8.4,5,25,42,14,91479.4873855327,91476.8871290008,91481.887690859,1.07614770800865,94.935316602583,5.00056185817812,2@
0.2,51.4285714285714,2,1,1,8,9.6,5,25,48,16,91493.2893145991,91490.2888056217,91495.2895429479,0.452695447020233,108.336993223449,5.00073732619057,1!
0.8,102.857142857143,1,1,1,9,9.8,5,25,49,14,91507.4910294985,91504.8905860812,91509.8913931138,-0.068425012359512,122.938773682923,5.00080703265849,1!
0.2,102.857142857143,2,1,1,10,10.8,5,25,54,11,91521.6928345355,91519.6926176041,91524.693247366,1.20208867023757,137.740805205874,5.00062976189656,1!
0.2,257.142857142857,1,1,1,11,10.6,5,25,53,7,91536.6948416011,91535.4945953449,91540.4954847033,1.68950094374304,153.542782946679,5.00088935840176,2@
0.2,308.571428571429,2,1,1,12,10,5,25,50,20,91554.8972466545,91551.0968676557,91556.0974153923,0.575492707561352,169.145055257395,5.00054773662123,1!
0.2,0,2,1,1,13,9.2,5,25,46,23,91570.4992828046,91566.0986905399,91571.0994086368,NaN,184.146878141677,5.00071809682413,
0.8,0,2,1,1,14,9.6,5,25,48,13,91582.7009334057,91580.3006061458,91585.3012677564,0.728810885746498,198.348793747573,5.00066161053837,1!
0.8,205.714285714286,2,1,1,15,11.6,5,25,58,18,91598.3029644479,91594.9025155022,91599.903164193,0.603294171523885,212.950703103925,5.00064869080961,1!
0.8,51.4285714285714,2,1,1,16,8,5,25,40,24,91616.1053174619,91611.5047818037,91616.5053565816,NaN,229.552969405471,5.00057477792143,
0.2,308.571428571429,1,1,1,17,12,5,25,60,17,91627.7068242033,91624.5065133485,91629.5070700989,NaN,242.554700950233,5.00055675038311,
0.2,154.285714285714,2,1,1,18,9.4,5,25,47,19,91645.1091029438,91641.5085811068,91646.5093262449,0.586638531691278,259.556768708528,5.00074513812433,1!
0.2,205.714285714286,1,1,1,19,9,5,25,45,11,91657.9108120744,91655.9105035031,91660.9111963613,0.936440318939276,273.958691104795,5.0006928582734,2@
0.8,308.571428571429,2,1,1,20,9.2,5,25,46,20,91673.7129169093,91669.9123537291,91674.9130327662,0.425652942314628,287.960541330831,5.00067903715535,1!
0.2,51.4285714285714,2,1,1,21,10.6,5,25,53,18,91687.5146933426,91684.1142170551,91689.1148882804,0.649400794776739,302.162404656876,5.00067122522159,1!
0.8,257.142857142857,1,1,1,22,11.2,5,25,56,11,91701.7165671847,91699.7163634736,91704.7169586827,0.817066186893499,317.764551075306,5.00059520913055,2@
0.8,0,2,1,1,23,11,5,25,55,8,91717.3185817017,91715.9185173434,91720.9190560662,0.573706178809516,333.966704945138,5.00053872284479,1!
0.8,154.285714285714,1,1,1,24,9.4,5,25,47,21,91735.9210210676,91731.9204823447,91736.9211448566,0.481526583695086,349.96866994648,5.00066251191311,2@
0.2,102.857142857143,2,1,1,25,10.4,5,25,52,8,91747.7225348998,91746.3224089474,91751.3230423148,NaN,364.370596549168,5.00063336741005,
0.2,0,1,1,1,26,10.2,5,25,51,19,91765.3249177794,91761.7245224356,91766.7250984153,0.789417956984835,379.772710037316,5.00057597974956,2@
0.8,102.857142857143,1,1,1,27,10,5,25,50,8,91778.3266036544,91776.9264158075,91781.9271110695,0.871448951133061,394.974603409253,5.0006952619442,2@
0.2,257.142857142857,1,1,1,28,10.2,5,25,51,9,91793.5285907695,91791.9284171644,91796.929027096,0.721982355855289,409.976604766125,5.00060993160878,2@
