trial,n_isi_sec,direction,wedgeorring,n_stim_sec,run_type,n_stim_flip,n_isi_flip,trial_start,trial_end,onset,duration
1,0,CCW,wedge,32,wedgering,480,0,10529.2581993811,NaN,22.1077198569837,NaN
2,0,CCW,wedge,32,wedgering,480,0,10561.3381032359,NaN,54.1876237118049,NaN
3,4,expand,ring,28,wedgering,420,60,10593.4513736742,10621.4485989845,86.3008941501666,27.9972253102187
4,4,expand,ring,28,wedgering,420,60,10625.5397443139,10653.5368082805,118.389264789832,27.9970639665898
5,0,CW,wedge,32,wedgering,480,0,10657.6364238066,NaN,150.485944282565,NaN
6,0,CW,wedge,32,wedgering,480,0,10689.7244419073,NaN,182.573962383198,NaN
7,4,contract,ring,28,wedgering,420,60,10721.7378511552,10749.7349007001,214.587371631163,27.9970495448124
8,26,contract,ring,28,wedgering,420,390,10753.8345110116,10781.8314499895,246.684031487546,27.9969389778562
