contrast	orientation	run	subject	onset	duration	trial_type
0.8	90	3	2	5.0008	4.9995	con-0.8_ori-90
0.2	67.5	3	2	18.5994	4.9994	con-0.2_ori-67.5
0.2	157.5	3	2	33.1977	4.9995	con-0.2_ori-157.5
0.2	112.5	3	2	47.1962	4.9995	con-0.2_ori-112.5
0.8	90	3	2	64.1943	4.9994	con-0.8_ori-90
0.8	157.5	3	2	80.5926	4.9994	con-0.8_ori-157.5
0.2	67.5	3	2	96.3908	4.9994	con-0.2_ori-67.5
0.2	90	3	2	113.189	4.9994	con-0.2_ori-90
0.2	112.5	3	2	128.5873	4.9995	con-0.2_ori-112.5
0.8	135	3	2	142.7857	4.9995	con-0.8_ori-135
0.8	0	3	2	157.7841	4.9995	con-0.8_ori-0
0.2	90	3	2	170.7827	4.9994	con-0.2_ori-90
0.2	22.5	3	2	184.9811	4.9995	con-0.2_ori-22.5
0.8	67.5	3	2	200.5794	4.9995	con-0.8_ori-67.5
0.2	45	3	2	215.1778	4.9994	con-0.2_ori-45
0.2	22.5	3	2	230.1761	4.9995	con-0.2_ori-22.5
0.8	0	3	2	245.5745	4.9995	con-0.8_ori-0
0.8	157.5	3	2	260.3729	4.9995	con-0.8_ori-157.5
0.2	135	3	2	274.1713	4.9994	con-0.2_ori-135
0.8	22.5	3	2	289.3697	4.9993	con-0.8_ori-22.5
0.2	157.5	3	2	303.9681	4.9994	con-0.2_ori-157.5
0.2	45	3	2	319.7663	4.9994	con-0.2_ori-45
0.2	135	3	2	333.9648	4.9994	con-0.2_ori-135
0.8	112.5	3	2	348.9631	4.9995	con-0.8_ori-112.5
0.2	0	3	2	365.1614	4.9994	con-0.2_ori-0
0.8	135	3	2	381.1596	4.9994	con-0.8_ori-135
0.8	22.5	3	2	394.3582	4.9994	con-0.8_ori-22.5
0.8	67.5	3	2	410.9563	4.9995	con-0.8_ori-67.5
0.2	0	3	2	426.7546	4.9996	con-0.2_ori-0
0.8	45	3	2	442.1529	4.9994	con-0.8_ori-45
0.8	112.5	3	2	456.5514	4.9993	con-0.8_ori-112.5
0.8	45	3	2	469.9498	4.9995	con-0.8_ori-45
