trial,n_isi_sec,direction,wedgeorring,n_stim_sec,run_type,n_stim_flip,n_isi_flip,trial_start,trial_end,onset,duration
1,0,CCW,wedge,32,wedgering,480,0,12518.1713986119,NaN,22.1314953579913,NaN
2,0,CCW,wedge,32,wedgering,480,0,12550.2346714539,NaN,54.1947681999827,NaN
3,4,expand,ring,28,wedgering,420,60,12582.3479632245,12610.344988733,86.3080599705554,27.9970255085173
4,4,expand,ring,28,wedgering,420,60,12614.4278129976,12642.4248730583,118.387909743713,27.9970600606921
5,0,CW,wedge,32,wedgering,480,0,12646.4661316588,NaN,150.426228404891,NaN
6,0,CW,wedge,32,wedgering,480,0,12678.5209948022,NaN,182.481091548238,NaN
7,4,contract,ring,28,wedgering,420,60,12710.6258035634,12738.6229447466,214.585900309467,27.9971411831866
8,26,contract,ring,28,wedgering,420,390,12742.7225373314,12770.7196037016,246.682634077457,27.9970663702188
