contrast	orientation	run	subject	onset	duration	trial_type
0.2	112.5	16	1	5	5	con-0.2_ori-112.5
0.2	45	16	1	20	5	con-0.2_ori-45
0.8	67.5	16	1	34.2	5	con-0.8_ori-67.5
0.8	157.5	16	1	50	5	con-0.8_ori-157.5
0.2	90	16	1	65.4	5	con-0.2_ori-90
0.8	135	16	1	82.2	5	con-0.8_ori-135
0.8	90	16	1	96.8	5	con-0.8_ori-90
0.8	67.5	16	1	113.8	5	con-0.8_ori-67.5
0.8	112.5	16	1	127.6	5	con-0.8_ori-112.5
0.8	157.5	16	1	142.8	5	con-0.8_ori-157.5
0.2	67.5	16	1	156	5	con-0.2_ori-67.5
0.8	90	16	1	170	5	con-0.8_ori-90
0.2	157.5	16	1	183	5	con-0.2_ori-157.5
0.2	45	16	1	197.2	5	con-0.2_ori-45
0.2	112.5	16	1	213	5	con-0.2_ori-112.5
0.8	45	16	1	226.6	5	con-0.8_ori-45
0.2	22.5	16	1	242	5	con-0.2_ori-22.5
0.8	45	16	1	256.2	5	con-0.8_ori-45
0.8	22.5	16	1	272	5	con-0.8_ori-22.5
0.2	135	16	1	286.4	5	con-0.2_ori-135
0.8	0	16	1	301.4	5	con-0.8_ori-0
0.2	135	16	1	317.8	5	con-0.2_ori-135
0.2	0	16	1	332.4	5	con-0.2_ori-0
0.2	22.5	16	1	348	5	con-0.2_ori-22.5
0.2	67.5	16	1	364	5	con-0.2_ori-67.5
0.8	22.5	16	1	378.6	5	con-0.8_ori-22.5
0.8	135	16	1	394.8	5	con-0.8_ori-135
0.2	0	16	1	409.8	5	con-0.2_ori-0
0.8	112.5	16	1	425.2	5	con-0.8_ori-112.5
0.8	0	16	1	441.8	5	con-0.8_ori-0
0.2	90	16	1	455.2	5	con-0.2_ori-90
0.2	157.5	16	1	470	5	con-0.2_ori-157.5
