contrast	orientation	run	subject	onset	duration	trial_type
0.8	135	7	1	5.1439	4.9995	con-0.8_ori-135
0.8	90	7	1	20.3425	4.9994	con-0.8_ori-90
0.8	22.5	7	1	34.5412	4.9995	con-0.8_ori-22.5
0.8	157.5	7	1	47.94	4.9994	con-0.8_ori-157.5
0.2	112.5	7	1	61.7388	4.9995	con-0.2_ori-112.5
0.2	90	7	1	77.7373	4.9996	con-0.2_ori-90
0.8	22.5	7	1	93.5358	4.9997	con-0.8_ori-22.5
0.2	67.5	7	1	108.9346	4.9995	con-0.2_ori-67.5
0.2	157.5	7	1	123.9332	4.9995	con-0.2_ori-157.5
0.2	90	7	1	139.5318	4.9996	con-0.2_ori-90
0.2	135	7	1	153.5305	4.9996	con-0.2_ori-135
0.8	90	7	1	170.1291	4.9996	con-0.8_ori-90
0.2	135	7	1	185.1278	4.9995	con-0.2_ori-135
0.2	157.5	7	1	201.1263	4.9995	con-0.2_ori-157.5
0.2	0	7	1	214.7251	4.9996	con-0.2_ori-0
0.8	112.5	7	1	231.7236	4.9996	con-0.8_ori-112.5
0.2	45	7	1	245.7224	4.9996	con-0.2_ori-45
0.2	0	7	1	260.1209	4.9997	con-0.2_ori-0
0.2	22.5	7	1	276.9196	4.9995	con-0.2_ori-22.5
0.8	157.5	7	1	291.1184	4.9995	con-0.8_ori-157.5
0.8	45	7	1	307.3169	4.9995	con-0.8_ori-45
0.8	0	7	1	320.5156	4.9996	con-0.8_ori-0
0.8	67.5	7	1	335.1144	4.9996	con-0.8_ori-67.5
0.8	112.5	7	1	350.3131	4.9995	con-0.8_ori-112.5
0.2	22.5	7	1	366.1116	4.9996	con-0.2_ori-22.5
0.2	67.5	7	1	380.5103	4.9996	con-0.2_ori-67.5
0.8	135	7	1	396.1089	4.9996	con-0.8_ori-135
0.2	112.5	7	1	409.1078	4.9995	con-0.2_ori-112.5
0.8	45	7	1	424.5064	4.9995	con-0.8_ori-45
0.8	0	7	1	439.3051	4.9995	con-0.8_ori-0
0.8	67.5	7	1	453.9038	4.9996	con-0.8_ori-67.5
0.2	45	7	1	468.7025	4.9996	con-0.2_ori-45
