contrast,orientation,freq_change_feature,run,subject,trial,n_isi_sec,n_stim_sec,n_stim_flip,n_isi_flip,freq_change_flip,freq_change_vbl,trial_start,trial_end,rt,onset,duration,response
0.8,135,2,9,1,1,9.6,5,25,48,21,89600.4272204365,89596.4276419477,89601.4271390121,NaN,5.11355300828291,4.99949706440384,
0.8,112.5,2,9,1,2,10.8,5,25,54,9,89612.6261242422,89611.0263287036,89616.0258550911,0.685350704676239,19.7122397641651,4.9995263874589,1!
0.2,45,1,9,1,3,10,5,25,50,8,89628.2247357614,89626.8248510775,89631.8244181162,0.782286264045979,35.5107621380885,4.99956703869975,2@
0.8,22.5,2,9,1,4,11.6,5,25,58,9,89643.4233664499,89641.8235242509,89646.8230912896,0.70614877162734,50.5094353114982,4.99956703869975,1!
0.2,90,2,9,1,5,8,5,25,40,16,89661.4217550887,89658.4220246004,89663.421667468,0.535013679895201,67.1079356609262,4.99964286762406,1!
0.8,45,2,9,1,6,10.4,5,25,52,8,89672.8207705449,89671.4209074941,89676.4204985695,0.658700599291478,80.106818554661,4.99959107540781,1!
0.2,0,1,9,1,7,10.4,5,25,52,18,89690.2192127255,89686.8195035097,89691.8190606332,0.450704906674218,95.5054145702161,4.99955712354858,2@
0.2,112.5,1,9,1,8,12,5,25,60,19,89705.817738614,89702.2181259656,89707.2175608024,0.572256464525708,110.904037026165,4.99943483676179,2@
0.2,67.5,2,9,1,9,10.2,5,25,51,21,89723.2162859552,89719.2166432008,89724.2161928129,NaN,127.902554261382,4.99954961208277,
0.8,22.5,1,9,1,10,11.4,5,25,57,7,89735.6152308035,89734.4153138504,89739.414895912,0.859980133667705,143.101224910934,4.99958206164592,2@
0.2,157.5,1,9,1,11,9.8,5,25,49,11,89752.813671602,89750.813832648,89755.813360627,0.615843439270975,159.49974370854,4.99952797904552,2@
0.8,112.5,1,9,1,12,8.4,5,25,42,20,89769.412153323,89765.612375242,89770.6120360238,0.591868620118476,174.29828630251,4.99966078187572,2@
0.2,22.5,1,9,1,13,9.8,5,25,49,15,89781.8110446897,89779.0113230949,89784.0108796175,0.693535205675289,187.69723415545,4.9995565226418,2@
0.8,0,2,9,1,14,9.2,5,25,46,22,89798.0095933529,89793.8099846706,89798.8095321795,NaN,202.495895731146,4.99954750886536,
0.2,67.5,1,9,1,15,9,5,25,45,24,89812.6082874983,89808.0087205197,89813.0082551089,NaN,216.694631580278,4.9995345891366,
0.8,135,1,9,1,16,8.8,5,25,44,15,89824.8072225517,89822.0074724134,89827.0070163167,0.625824384158477,230.693383473917,4.99954390336643,2@
0.8,67.5,1,9,1,17,11,5,25,55,5,89836.6061713661,89835.8062535717,89840.8057947709,0.674489114666358,244.492164632262,4.99954119922768,2@
0.2,135,1,9,1,18,9.4,5,25,47,15,89854.60459606,89851.8048302978,89856.8043967356,0.819505011953879,260.490741358357,4.99956643777841,2@
0.8,45,1,9,1,19,10.8,5,25,54,19,89869.8032279504,89866.2035353799,89871.2031006159,0.564240821433486,274.889446440502,4.99956523593573,2@
0.8,67.5,2,9,1,20,9,5,25,45,20,89885.8018557218,89882.0020987056,89887.0016810677,NaN,290.68800976612,4.99958236209932,
0.8,157.5,2,9,1,21,10,5,25,50,18,89899.4006537042,89896.0008953676,89901.000479232,0.541769352814299,304.686806428144,4.99958386439539,1!
0.8,90,2,9,1,22,10.6,5,25,53,9,89912.5994350771,89910.9995529171,89915.9991445935,0.660441157830064,319.685463977687,4.99959167632915,1!
0.2,157.5,2,9,1,23,11,5,25,55,13,89928.9980067555,89926.5982298145,89931.597699326,0.61929511136259,335.284140875054,4.9994695114583,1!
0.2,0,2,9,1,24,8.2,5,25,41,15,89945.3964723719,89942.5967312473,89947.5962829626,0.789402633585269,351.282642307866,4.99955171528563,1!
0.2,22.5,2,9,1,25,11.2,5,25,56,21,89959.7951954816,89955.7956089131,89960.795183731,NaN,364.481519973619,4.99957481797901,
0.8,157.5,1,9,1,26,10.2,5,25,51,21,89975.9937630737,89971.9941004891,89976.9936630209,0.56599550152896,380.680011549644,4.99956253181153,2@
0.2,135,2,9,1,27,9.4,5,25,47,13,89989.5925629807,89987.1927666317,89992.1922988172,0.887645790178794,395.878677692308,4.9995321854658,1!
0.8,90,1,9,1,28,11.8,5,25,59,16,90004.5911508238,90001.5914458744,90006.5909365966,0.58640207053395,410.277356934981,4.99949072214076,2@
0.2,112.5,2,9,1,29,10.6,5,25,53,12,90020.5897876416,90018.3899647321,90023.3895759383,NaN,427.075875792696,4.99961120614898,
0.2,45,2,9,1,30,9.6,5,25,48,10,90035.7884159265,90033.9885942789,90038.9881967718,0.595162250829162,442.674505339455,4.99960249285505,1!
0.2,90,1,9,1,31,9.2,5,25,46,9,90050.1871300224,90048.5873004427,90053.5869142311,0.548081239277963,457.273211503256,4.99961378837179,2@
0.8,0,1,9,1,32,8.6,5,25,43,20,90066.5857368545,90062.7860639341,90067.7856021287,0.541785723515204,471.471974994609,4.99953819463553,2@
