contrast,orientation,freq_change_feature,run,subject,trial,n_isi_sec,n_stim_sec,n_stim_flip,n_isi_flip,freq_change_flip,freq_change_vbl,trial_start,trial_end,rt,onset,duration,response
0.2,308.571428571429,1,4,1,1,9.2,5,25,46,23,93235.8263004914,93231.425699213,93236.4263620254,NaN,5.11980408876843,5.00066281238105,
0.8,51.4285714285714,1,4,1,2,8,5,25,40,5,93246.4276876501,93245.6275469152,93250.6282289569,0.752777592497296,19.3216517909459,5.0006820417475,2@
0.8,205.714285714286,2,4,1,3,12,5,25,60,7,93259.8294532068,93258.6292421044,93263.6298989076,0.704445169554674,32.323346980178,5.00065680319676,1!
0.8,102.857142857143,2,4,1,4,10.4,5,25,52,22,93279.8320858279,93275.6314627963,93280.6321214022,NaN,49.3255676720582,5.00065860596078,
0.8,154.285714285714,2,4,1,5,10,5,25,50,15,93293.833949875,93291.0335381261,93296.0342033422,0.535620306458441,64.7276430019265,5.00066521605186,1!
0.8,257.142857142857,1,4,1,6,9,5,25,45,8,93307.4355774009,93306.0353844462,93311.0361527197,0.716373088260298,79.7294893219951,5.00076827345765,2@
0.2,51.4285714285714,1,4,1,7,9,5,25,45,6,93321.0374723352,93320.0373272136,93325.0380089549,0.696253757996601,93.7314320893784,5.00068174127955,2@
0.2,0,2,4,1,8,10.6,5,25,53,16,93337.0395725431,93334.0391831483,93339.0398666924,0.733584877540125,107.73328802413,5.00068354404357,1!
0.2,154.285714285714,1,4,1,9,8.8,5,25,44,8,93351.041486166,93349.6412433351,93354.6418992369,0.708252284544869,123.33534821085,5.00065590183658,2@
0.8,0,2,4,1,10,11,5,25,55,18,93366.8435630582,93363.4430438051,93368.4436780739,0.53752731923305,137.137148680893,5.00063426878478,1!
0.2,257.142857142857,2,4,1,11,10.6,5,25,53,5,93380.2452715277,93379.4451031505,93384.445794807,NaN,153.139208026332,5.00069165644527,
0.2,102.857142857143,2,4,1,12,9.6,5,25,48,14,93397.6475289357,93395.0471900781,93400.0478354639,0.77757566908258,168.741294953914,5.00064538576407,1!
0.8,308.571428571429,1,4,1,13,11,5,25,55,5,93410.4492134286,93409.6491051432,93414.6497853822,0.651400048431242,183.343210018982,5.00068023899803,2@
0.2,205.714285714286,1,4,1,14,9.8,5,25,49,24,93430.2518131194,93425.6511969382,93430.6519495878,NaN,199.345301813984,5.00075264960469,
0.2,102.857142857143,2,4,1,15,11.2,5,25,56,13,93442.8535004366,93440.4531512432,93445.4538233698,0.655057234413107,214.147256119002,5.00067212659633,1!
0.2,154.285714285714,2,4,1,16,10.8,5,25,54,18,93460.055730623,93456.6552438194,93461.6559357763,0.621241183776874,230.349348695192,5.00069195689866,1!
0.8,0,1,4,1,17,10.4,5,25,52,15,93475.257707222,93472.457343847,93477.4580078612,0.828747729276074,246.151448722783,5.00066401420918,2@
0.8,257.142857142857,1,4,1,18,9.4,5,25,47,19,93491.4598505758,93487.8594014498,93492.8600002644,0.60092535338481,261.553506325567,5.00059881462948,2@
0.8,102.857142857143,1,4,1,19,9.2,5,25,46,23,93506.6618274753,93502.261298307,93507.2619103419,NaN,275.955403182816,5.00061203482619,
0.8,154.285714285714,2,4,1,20,9.8,5,25,49,16,93519.4635212824,93516.4632346446,93521.4637980051,0.654330724748434,290.157339520389,5.00056336047419,1!
0.2,308.571428571429,2,4,1,21,8.4,5,25,42,9,93532.8652694125,93531.2650438279,93536.2657171564,0.743981657578843,304.959148703725,5.00067332845356,1!
0.8,205.714285714286,1,4,1,22,10.8,5,25,54,19,93548.267307185,93544.6668682746,93549.6674739998,0.714555612241384,318.360973150397,5.00060572517395,2@
0.8,51.4285714285714,2,4,1,23,10.2,5,25,51,10,93562.2691345762,93560.4689271393,93565.4696175939,0.663150696374942,334.163032015102,5.00069045460259,1!
0.8,308.571428571429,1,4,1,24,11.6,5,25,58,19,93579.2713892199,93575.6709049402,93580.6715521287,0.678228626406053,349.365009816,5.00064718851354,2@
0.2,51.4285714285714,1,4,1,25,10.2,5,25,51,10,93594.0733005593,93592.2731027371,93597.2737430151,0.666893813613569,365.967207612906,5.00064027796907,2@
0.2,257.142857142857,1,4,1,26,10,5,25,50,22,93611.675613432,93607.4750105311,93612.4757388435,NaN,381.169115406869,5.00072831242869,
0.2,205.714285714286,2,4,1,27,9.4,5,25,47,15,93625.2774173272,93622.477044638,93627.4776951315,0.817573361564428,396.171149513772,5.00065049355908,1!
0.2,0,2,4,1,28,9.6,5,25,48,14,93639.4792689354,93636.878928876,93641.8795946929,0.62724465347128,410.573033751745,5.0006658169732,1!
