contrast,orientation,freq_change_feature,run,subject,trial,n_isi_sec,n_stim_sec,n_stim_flip,n_isi_flip,freq_change_flip,freq_change_vbl,trial_start,trial_end,rt,onset,duration,response
0.2,112.5,1,16,1,1,10,5,25,50,7,NaN,NaN,NaN,NaN,5,5,NaN
0.2,45,2,16,1,2,9.2,5,25,46,18,NaN,NaN,NaN,NaN,20,5,NaN
0.8,67.5,1,16,1,3,10.8,5,25,54,21,NaN,NaN,NaN,NaN,34.2,5,NaN
0.8,157.5,1,16,1,4,10.4,5,25,52,6,NaN,NaN,NaN,NaN,50,5,NaN
0.2,90,1,16,1,5,11.8,5,25,59,9,NaN,NaN,NaN,NaN,65.4,5,NaN
0.8,135,1,16,1,6,9.6,5,25,48,8,NaN,NaN,NaN,NaN,82.2,5,NaN
0.8,90,2,16,1,7,12,5,25,60,7,NaN,NaN,NaN,NaN,96.8,5,NaN
0.8,67.5,2,16,1,8,8.8,5,25,44,23,NaN,NaN,NaN,NaN,113.8,5,NaN
0.8,112.5,2,16,1,9,10.2,5,25,51,10,NaN,NaN,NaN,NaN,127.6,5,NaN
0.8,157.5,2,16,1,10,8.2,5,25,41,23,NaN,NaN,NaN,NaN,142.8,5,NaN
0.2,67.5,1,16,1,11,9,5,25,45,21,NaN,NaN,NaN,NaN,156,5,NaN
0.8,90,1,16,1,12,8,5,25,40,15,NaN,NaN,NaN,NaN,170,5,NaN
0.2,157.5,1,16,1,13,9.2,5,25,46,5,NaN,NaN,NaN,NaN,183,5,NaN
0.2,45,1,16,1,14,10.8,5,25,54,5,NaN,NaN,NaN,NaN,197.2,5,NaN
0.2,112.5,2,16,1,15,8.6,5,25,43,17,NaN,NaN,NaN,NaN,213,5,NaN
0.8,45,1,16,1,16,10.4,5,25,52,5,NaN,NaN,NaN,NaN,226.6,5,NaN
0.2,22.5,1,16,1,17,9.2,5,25,46,13,NaN,NaN,NaN,NaN,242,5,NaN
0.8,45,2,16,1,18,10.8,5,25,54,20,NaN,NaN,NaN,NaN,256.2,5,NaN
0.8,22.5,2,16,1,19,9.4,5,25,47,20,NaN,NaN,NaN,NaN,272,5,NaN
0.2,135,2,16,1,20,10,5,25,50,18,NaN,NaN,NaN,NaN,286.4,5,NaN
0.8,0,2,16,1,21,11.4,5,25,57,14,NaN,NaN,NaN,NaN,301.4,5,NaN
0.2,135,1,16,1,22,9.6,5,25,48,13,NaN,NaN,NaN,NaN,317.8,5,NaN
0.2,0,2,16,1,23,10.6,5,25,53,14,NaN,NaN,NaN,NaN,332.4,5,NaN
0.2,22.5,2,16,1,24,11,5,25,55,14,NaN,NaN,NaN,NaN,348,5,NaN
0.2,67.5,2,16,1,25,9.6,5,25,48,17,NaN,NaN,NaN,NaN,364,5,NaN
0.8,22.5,1,16,1,26,11.2,5,25,56,19,NaN,NaN,NaN,NaN,378.6,5,NaN
0.8,135,2,16,1,27,10,5,25,50,12,NaN,NaN,NaN,NaN,394.8,5,NaN
0.2,0,1,16,1,28,10.4,5,25,52,11,NaN,NaN,NaN,NaN,409.8,5,NaN
0.8,112.5,1,16,1,29,11.6,5,25,58,12,NaN,NaN,NaN,NaN,425.2,5,NaN
0.8,0,1,16,1,30,8.4,5,25,42,5,NaN,NaN,NaN,NaN,441.8,5,NaN
0.2,90,2,16,1,31,9.8,5,25,49,13,NaN,NaN,NaN,NaN,455.2,5,NaN
0.2,157.5,2,16,1,32,15,5,25,75,5,NaN,NaN,NaN,NaN,470,5,NaN
