contrast,orientation,freq_change_feature,run,subject,trial,n_isi_sec,n_stim_sec,n_stim_flip,n_isi_flip,freq_change_flip,freq_change_vbl,trial_start,trial_end,rt,onset,duration,response
0.8,22.5,2,2,2,1,8.6,5,25,43,18,6538.15225625017,6534.75272991264,6539.75211834234,6536.45855193777,5.00791016929088,4.99938842969823,1!
0.8,45,1,2,2,2,9,5,25,45,7,6549.55103791414,6548.35116380385,6553.35068914748,0.669809903523856,18.6063440604994,4.99952534362546,2@
0.2,157.5,1,2,2,3,10.4,5,25,52,24,6566.94911621814,6562.34964862047,6567.34908827603,NaN,32.6048288771181,4.99943965556031,
0.2,135,2,2,2,4,10.4,5,25,52,7,6578.9478266748,6577.74795827312,6582.74741235041,NaN,48.0031385297643,4.9994540772941,
0.8,22.5,1,2,2,5,10,5,25,50,14,6595.74598369743,6593.14627603799,6598.14570818223,0.0722174316697419,63.4014562946359,4.99943214424184,1!
0.2,157.5,2,2,2,6,9.6,5,25,48,14,6610.74437927957,6608.14461904089,6613.14405118514,0.671182972740098,78.399799297541,4.99943214424184,1!
0.2,135,1,2,2,7,10.8,5,25,54,18,6626.14261952763,6622.74300771262,6627.74248041799,0.47308574021099,92.9981879692696,4.99947270536722,2@
0.2,0,2,2,2,8,10.4,5,25,52,5,6639.34120259231,6638.54128101048,6643.54069542801,1.04757068902836,108.796461267129,4.99941441752708,1!
0.8,67.5,2,2,2,9,10.8,5,25,54,11,6655.93936712626,6653.93957864502,6658.9390423368,0.528576665034052,124.194758901664,4.9994636917836,1!
0.8,45,2,2,2,10,10.6,5,25,53,6,6670.73773356448,6669.73786125691,6674.73730481836,0.577419471143003,139.993041513561,4.99944356144624,1!
0.8,0,1,2,2,11,10,5,25,50,11,6687.33592003149,6685.33615618737,6690.33565473168,0.784252067866873,155.591336444021,4.99949854430633,2@
0.2,112.5,1,2,2,12,11.8,5,25,59,16,6703.33421406059,6700.33454395774,6705.33395476984,NaN,170.589724214391,4.99941081209363,
0.8,135,2,2,2,13,9.2,5,25,46,14,6719.73237198458,6717.13267724461,6722.13216046582,0.442085623033563,187.387857501254,4.99948322121509,1!
0.8,0,2,2,2,14,11.4,5,25,57,5,6732.13100222035,6731.33112991278,6736.33061463626,0.582824917149992,201.586310169425,4.99948472347842,1!
0.8,112.5,1,2,2,15,11.2,5,25,56,8,6749.12905288269,6747.72919740048,6752.72861211846,0.673507575917029,217.98437765713,4.99941471797956,2@
0.2,90,1,2,2,16,9.2,5,25,46,21,6767.92713088625,6763.92750284679,6768.92697495125,NaN,234.182683103437,4.99947210446135,
0.2,22.5,2,2,2,17,9.6,5,25,48,5,6778.92592426787,6778.12605652612,6783.12541409905,0.668092214968055,248.381236782764,4.99935757293042,1!
0.2,67.5,2,2,2,18,11.6,5,25,58,6,6793.72427778662,6792.72439195868,6797.72390630627,0.503078138755882,262.979572215329,4.99951434758805,1!
0.2,112.5,2,2,2,19,10.8,5,25,54,19,6812.92219384613,6809.32256911165,6814.32204121611,0.596906838605719,279.577749368298,4.99947210446135,1!
0.8,157.5,1,2,2,20,12,5,25,60,6,6826.12075407639,6825.12085412717,6830.12030610129,0.699631644888541,295.376034383817,4.9994519741249,2@
0.2,67.5,1,2,2,21,9.8,5,25,49,22,6846.31852201267,6842.11900724392,6847.11843367955,19.5327463487474,312.374187500563,4.99942643563827,2@
0.2,45,1,2,2,22,9.2,5,25,46,17,6860.11702455601,6856.91733221965,6861.91667903531,1.01840693925715,327.172512476302,4.99934681565173,2@
0.2,0,1,2,2,23,10.2,5,25,51,9,6872.71558148129,6871.1157926996,6876.11525939591,0.585248970198336,341.370972956245,4.99946669631117,2@
0.8,90,2,2,2,24,10,5,25,50,13,6888.71387430858,6886.31413059481,6891.31359789202,0.913004197324881,356.569310851453,4.99946729721705,2@
0.8,67.5,1,2,2,25,9.6,5,25,48,23,6905.71207153019,6901.31252016789,6906.31192767501,NaN,371.56770042454,4.99940750711266,
0.2,45,2,2,2,26,9.4,5,25,47,16,6918.91056181666,6915.91092326135,6920.91036351782,-0.178313318170694,386.166103518001,4.9994402564671,2@
0.2,90,2,2,2,27,8.4,5,25,42,6,6931.30918123612,6930.30929871316,6935.30877652623,0.686292743163904,400.564478969807,4.99947781306491,1!
0.2,22.5,1,2,2,28,11,5,25,55,16,6946.70751282182,6943.70784692532,6948.7072724596,0.847256114965603,413.963027181963,4.99942553427991,2@
0.8,90,1,2,2,29,8,5,25,40,24,6964.30559262809,6959.70609558605,6964.70552983346,NaN,429.961275842695,4.99943424741105,
0.8,157.5,2,2,2,30,8.2,5,25,41,23,6977.10417569277,6972.70464409866,6977.70410538682,NaN,442.959824355304,4.999461288161,
0.8,112.5,2,2,2,31,8.8,5,25,44,12,6988.10295825809,6985.90319170991,6990.90273577147,0.457428845269533,456.158371966553,4.99954406156667,1!
0.8,135,1,2,2,32,15,5,25,75,23,7004.10121563196,6999.70176972591,7004.70120030887,14.9186710372533,469.956949982557,4.99943058295594,2@
