trial,n_isi_sec,direction,wedgeorring,n_stim_sec,run_type,n_stim_flip,n_isi_flip,trial_start,trial_end,onset,duration
1,0,CCW,wedge,32,wedgering,480,0,365077.400536009,NaN,22.0171453895746,NaN
2,0,CCW,wedge,32,wedgering,480,0,365109.46272842,NaN,54.0793378000963,NaN
3,4,expand,ring,28,wedgering,420,60,365141.566335667,365169.619611814,86.1829450470395,28.0532761469949
4,4,expand,ring,28,wedgering,420,60,365173.661722501,365201.664935252,118.278331881156,28.0032127512386
5,0,CW,wedge,32,wedgering,480,0,365205.748565334,NaN,150.365174713836,NaN
6,0,CW,wedge,32,wedgering,480,0,365237.75241054,NaN,182.369019920065,NaN
7,4,contract,ring,28,wedgering,420,60,365269.755912628,365297.759303248,214.372522008256,28.0033906198223
8,26,contract,ring,28,wedgering,420,390,365301.851378782,365329.854597843,246.467988162127,28.0032190607744
