trial,n_isi_sec,direction,wedgeorring,n_stim_sec,run_type,n_stim_flip,n_isi_flip,trial_start,trial_end,onset,duration
1,0,CCW,wedge,32,wedgering,480,0,263780.585199705,NaN,22.0242108751554,NaN
2,0,CCW,wedge,32,wedgering,480,0,263812.646936805,NaN,54.0859479758074,NaN
3,4,expand,ring,28,wedgering,420,60,263844.750227065,263872.753094562,86.1892382356455,28.0028674963396
4,4,expand,ring,28,wedgering,420,60,263876.836837534,263904.839752802,118.275848704099,28.002915267949
5,0,CW,wedge,32,wedgering,480,0,263908.940122085,NaN,150.379133255337,NaN
6,0,CW,wedge,32,wedgering,480,0,263941.026820585,NaN,182.465831755719,NaN
7,4,contract,ring,28,wedgering,420,60,263973.13005406,264001.132945893,214.569065230433,28.002891832788
8,26,contract,ring,28,wedgering,420,390,264005.225011635,264033.227718991,246.664022805344,28.0027073564124
