contrast,orientation,freq_change_feature,run,subject,trial,n_isi_sec,n_stim_sec,n_stim_flip,n_isi_flip,freq_change_flip,freq_change_vbl,trial_start,trial_end,rt,onset,duration,response
0.5,135,1,1,3,1,10.4,5,25,52,23,21771.6610684789,21767.2605458759,21772.2610990046,NaN,5.00307480698029,5.00055312875338,
0.5,90,2,1,3,2,10.6,5,25,53,24,21787.2626000537,21782.6621464941,21787.6626185013,NaN,20.4046754251867,5.00047200721019,
1,45,2,1,3,3,9.4,5,25,47,14,21800.8640174574,21798.2637234368,21803.2643090142,0.986025461948884,36.0062523679226,5.00058557737066,1!
0.5,90,1,1,3,4,9,5,25,45,14,21815.2654531284,21812.6652092831,21817.6656833934,0.849592544509505,50.4077382141659,5.00047411035848,2@
0.5,22.5,2,1,3,5,8.8,5,25,44,23,21831.0671001361,21826.6666307128,21831.6671634109,NaN,64.4091596438921,5.00053269814089,
1,0,1,1,3,6,10.8,5,25,54,7,21841.6682101793,21840.4680529838,21845.4685637491,1.03613994848274,78.2105819148819,5.00051076527961,2@
0.5,135,2,1,3,7,9.2,5,25,46,15,21859.0699934712,21856.2696927807,21861.2702119586,NaN,94.0122217117896,5.00051917788369,
0.5,112.5,1,1,3,8,12,5,25,60,9,21872.0713379857,21870.4711422124,21875.4716460673,0.953037235689408,108.213671143472,5.00050385492796,2@
0.5,157.5,1,1,3,9,9.8,5,25,49,5,21888.2729568713,21887.4728869265,21892.4734421584,0.972510612653423,125.21541585758,5.00055523190167,2@
1,112.5,2,1,3,10,9.4,5,25,47,24,21906.8749274037,21902.2744140546,21907.2749266226,NaN,140.016942985672,5.00051256798179,
0.5,67.5,2,1,3,11,10.4,5,25,52,8,21918.0760745825,21916.6759050085,21921.6764235855,0.944359634038847,154.418433939569,5.00051857698418,1!
1,157.5,2,1,3,12,11.4,5,25,57,6,21933.0774551511,21932.0775443848,21937.0780046744,NaN,169.820073315848,5.00046028965153,
1,45,1,1,3,13,9.8,5,25,49,7,21949.6791519734,21948.4790563702,21953.4796918223,0.996062600592268,186.221585301257,5.00063545209559,2@
1,157.5,1,1,3,14,9.6,5,25,48,20,21967.0810689656,21963.2806826468,21968.2812081341,0.777185557119083,201.023211577907,5.00052548733584,2@
1,112.5,1,1,3,15,9.2,5,25,46,20,21981.6825626837,21977.8821838761,21982.8827045562,NaN,215.624712807199,5.00052068013247,
0.5,157.5,2,1,3,16,11.2,5,25,56,9,21993.6838014397,21992.0836486307,21997.0841320551,0.898960712835105,229.826177561838,5.00048342431546,1!
0.5,45,2,1,3,17,10.2,5,25,51,15,22011.0856078663,22008.2852981622,22013.2858167392,0.872987697468488,246.027827093334,5.00051857698054,1!
1,22.5,2,1,3,18,10,5,25,50,19,22027.0872489251,22023.4868812942,22028.4873593105,0.800155873545009,261.22941022534,5.00047801621258,1!
1,90,2,1,3,19,11,5,25,55,8,22039.8885098543,22038.4884265094,22043.4888501442,NaN,276.230955440536,5.0004236347304,
0.5,67.5,1,1,3,20,8,5,25,40,11,22056.4901865465,22054.4900375232,22059.4905155394,1.29745137138889,292.232566454317,5.00047801621258,2@
0.5,112.5,2,1,3,21,8.2,5,25,41,8,22068.8915338852,22067.4913537954,22072.4918297085,NaN,305.233882726487,5.00047591306065,
0.5,0,2,1,3,22,10.2,5,25,51,22,22084.893178249,22080.6927701776,22085.6932502969,NaN,318.435299108653,5.00048011936451,
0.5,22.5,1,1,3,23,8.6,5,25,43,12,22098.0945186172,22095.8943046366,22100.8949358824,1.46550096009014,333.636833567733,5.00063124579538,2@
1,90,1,1,3,24,10.8,5,25,54,24,22114.0962495106,22109.4957088205,22114.4961829309,NaN,347.238237751622,5.00047411035848,
0.5,0,1,1,3,25,11.6,5,25,58,7,22126.4974823778,22125.2973224783,22130.2978131134,1.37851643117028,363.039851409365,5.00049063512051,2@
0.5,45,1,1,3,26,9,5,25,45,20,22145.6994056194,22141.8990664713,22146.8996045775,NaN,379.641595402391,5.00053810624377,
1,135,1,1,3,27,9.6,5,25,48,15,22158.7007327078,22155.9004584569,22160.900970424,1.08322739961295,393.642987388001,5.00051196708228,2@
1,67.5,1,1,3,28,11.8,5,25,59,22,22174.7024086188,22170.5020369019,22175.5025065055,NaN,408.244565832985,5.00046960360851,
1,135,2,1,3,29,11,5,25,55,23,22191.7041749654,22187.3037755469,22192.3041910695,NaN,425.046304477997,5.00041552257971,
1,0,2,1,3,30,10.6,5,25,53,10,22205.1055171964,22203.3053384887,22208.3058756936,1.0344306875013,441.047867419755,5.0005372048945,1!
1,67.5,2,1,3,31,8.4,5,25,42,19,22222.5073046946,22218.9069499832,22223.9074754705,NaN,456.649478914256,5.00052548733584,
1,22.5,1,1,3,32,15,5,25,75,7,22233.5084412976,22232.3083372817,22237.3088399349,1.24369813291196,470.050866212845,5.0005026531253,2@
