contrast,orientation,freq_change_feature,run,subject,trial,n_isi_sec,n_stim_sec,n_stim_flip,n_isi_flip,freq_change_flip,freq_change_vbl,trial_start,trial_end,rt,onset,duration,response
1,0,2,14,3,1,10.6,5,25,53,13,349527.585321988,349525.185053866,349530.185512954,0.693555554316845,5.00859858322656,5.00045908789616,1!
0.5,45,2,14,3,2,11.2,5,25,56,15,349543.587030047,349540.786712531,349545.787254544,0.796976810321212,20.6102572484524,5.0005420121015,1!
0.5,22.5,1,14,3,3,11.8,5,25,59,24,349561.588879618,349556.988365067,349561.988894761,NaN,36.8119097844465,5.00052969361423,
1,135,2,14,3,4,10.2,5,25,51,11,349575.790341068,349573.79011543,349578.790634307,1.07875700161094,53.6136601470062,5.00051887740847,1!
1,157.5,1,14,3,5,9.4,5,25,47,16,349591.992047985,349588.991675427,349593.992185892,1.10285160253989,68.8152201443445,5.00051046482986,1!
0.5,67.5,2,14,3,6,8.8,5,25,44,22,349607.593645659,349603.393168484,349608.393670236,NaN,83.216713201371,5.0005017517833,
1,112.5,2,14,3,7,10.4,5,25,52,12,349619.39482757,349617.194573029,349622.195112036,0.768438251048792,97.0181177458144,5.00053900759667,1!
1,67.5,2,14,3,8,10.2,5,25,51,7,349633.796263241,349632.596148109,349637.59665587,1.49897982145194,112.419692825759,5.00050776079297,1!
1,135,1,14,3,9,9,5,25,45,7,349648.997951531,349647.797778712,349652.798245912,0.997217831434682,127.621323428873,5.00046720000682,2@
1,45,2,14,3,10,9.8,5,25,49,6,349662.799254823,349661.799153271,349666.79965983,0.994021342194173,141.622697988409,5.0005065589794,1!
0.5,157.5,1,14,3,11,9,5,25,45,9,349678.200826899,349676.600669283,349681.601257865,NaN,156.424213999824,5.00058858189732,
0.5,112.5,1,14,3,12,11,5,25,55,9,349692.202278674,349690.602097022,349695.602616801,1.00113480031723,170.425641738984,5.0005197788123,2@
0.5,90,2,14,3,13,9.8,5,25,49,20,349710.404145131,349706.603562618,349711.604262667,0.70709804497892,186.427107334894,5.00070004892768,1!
1,22.5,1,14,3,14,11,5,25,55,7,349722.60537944,349721.405290447,349726.405817737,2.19996160245501,201.228835163696,5.00052729004528,2@
1,90,1,14,3,15,9.2,5,25,46,23,349741.807350453,349737.406914079,349742.407469612,NaN,217.230458796432,5.00055553234415,
0.5,135,2,14,3,16,10.8,5,25,54,15,349754.408667807,349751.608357802,349756.608857752,0.787917336507235,231.431902519544,5.00049994909205,1!
0.5,0,1,14,3,17,12,5,25,60,20,349771.210386622,349767.410003008,349772.410488535,NaN,247.233547724551,5.00048552744556,
1,22.5,2,14,3,18,10.8,5,25,54,5,349785.211821272,349784.411758538,349789.412309563,0.745630177727435,264.235303254856,5.00055102561601,1!
0.5,135,1,14,3,19,8.4,5,25,42,10,349802.013551805,349800.213364384,349805.213856221,0.991797109658364,280.036909100891,5.00049183692317,2@
1,0,1,14,3,20,11.6,5,25,58,22,349817.815221346,349813.614663951,349818.615199654,NaN,293.438208668027,5.0005357026821,
1,90,2,14,3,21,8,5,25,40,14,349832.816721193,349830.21645181,349835.216940041,1.10280112689361,310.039996526786,5.00048823154066,1!
1,112.5,1,14,3,22,11.4,5,25,57,24,349847.818226148,349843.217814351,349848.218284856,NaN,323.041359068302,5.0004705049214,
0.5,0,2,14,3,23,8.2,5,25,41,5,349860.419512556,349859.619440808,349864.620065444,0.813087549118791,339.44298552518,5.00062463589711,1!
0.5,90,1,14,3,24,9.6,5,25,48,11,349874.821014626,349872.820799504,349877.821321386,1.03268927830504,352.644344220927,5.00052188197151,2@
1,45,1,14,3,25,9.2,5,25,46,16,349890.422659771,349887.42228511,349892.422846651,1.14418272901094,367.245829826803,5.00056154135382,2@
1,67.5,1,14,3,26,9.4,5,25,47,11,349903.623964085,349901.623767891,349906.624260029,0.934937516925856,381.447312608478,5.00049213739112,2@
1,157.5,2,14,3,27,10.4,5,25,52,11,349918.025554188,349916.025234509,349921.025769911,0.629450605832972,395.848779225897,5.00053540221415,1!
0.5,45,1,14,3,28,9.6,5,25,48,6,349932.426924661,349931.426822208,349936.427314345,0.969119732093532,411.250366924738,5.00049213739112,2@
0.5,22.5,2,14,3,29,8.6,5,25,43,24,349950.62878601,349946.028364298,349951.028812269,NaN,425.851909015269,5.00044797122246,
0.5,112.5,2,14,3,30,10.6,5,25,53,14,349962.229971166,349959.629756464,349964.63026783,0.946058980189264,439.453301181144,5.00051136617549,1!
0.5,157.5,2,14,3,31,10,5,25,50,20,349979.031693887,349975.231294048,349980.231808118,NaN,455.054838764889,5.00051407027058,
0.5,67.5,1,14,3,32,15,5,25,75,22,349994.433300214,349990.232874716,349995.233323288,NaN,470.056419433211,5.00044857210014,
