contrast	orientation	run	subject	onset	duration	trial_type
1	90	2	1	5.0056	5.0006	con-1_ori-90
0.5	22.5	2	1	19.2072	5.0006	con-0.5_ori-22.5
0.5	67.5	2	1	32.8088	5.0006	con-0.5_ori-67.5
1	157.5	2	1	46.2104	5.0005	con-1_ori-157.5
1	135	2	1	62.0121	5.0006	con-1_ori-135
1	90	2	1	78.2138	5.0008	con-1_ori-90
0.5	112.5	2	1	93.6158	5.0006	con-0.5_ori-112.5
0.5	0	2	1	109.4176	5.0005	con-0.5_ori-0
1	157.5	2	1	123.2192	5.0006	con-1_ori-157.5
1	45	2	1	138.0208	5.0006	con-1_ori-45
1	135	2	1	153.4226	5.0006	con-1_ori-135
1	0	2	1	170.2245	5.0005	con-1_ori-0
1	67.5	2	1	185.8263	5.0005	con-1_ori-67.5
1	112.5	2	1	200.2279	5.0006	con-1_ori-112.5
1	22.5	2	1	214.2295	5.0006	con-1_ori-22.5
0.5	157.5	2	1	230.6314	5.0007	con-0.5_ori-157.5
0.5	45	2	1	245.8332	5.0005	con-0.5_ori-45
1	67.5	2	1	260.2348	5.0006	con-1_ori-67.5
0.5	135	2	1	274.8365	5.0006	con-0.5_ori-135
0.5	45	2	1	290.4382	5.0006	con-0.5_ori-45
0.5	90	2	1	307.0402	5.0006	con-0.5_ori-90
0.5	22.5	2	1	322.0419	5.0006	con-0.5_ori-22.5
1	0	2	1	336.6435	5.0006	con-1_ori-0
0.5	157.5	2	1	352.6454	5.0005	con-0.5_ori-157.5
1	112.5	2	1	369.6473	5.0006	con-1_ori-112.5
1	22.5	2	1	384.449	5.0006	con-1_ori-22.5
1	45	2	1	399.6508	5.0005	con-1_ori-45
0.5	135	2	1	413.8524	5.0006	con-0.5_ori-135
0.5	112.5	2	1	427.0539	5.0006	con-0.5_ori-112.5
0.5	90	2	1	440.0554	5.0005	con-0.5_ori-90
0.5	0	2	1	454.057	5.0006	con-0.5_ori-0
0.5	67.5	2	1	470.0588	5.0004	con-0.5_ori-67.5
