contrast	orientation	run	subject	onset	duration	trial_type
1	67.5	2	3	5.0075	5.0006	con-1_ori-67.5
1	90	2	3	19.209	5.0005	con-1_ori-90
0.5	135	2	3	34.6106	5.0005	con-0.5_ori-135
0.5	67.5	2	3	50.4122	5.0006	con-0.5_ori-67.5
1	22.5	2	3	67.214	5.0004	con-1_ori-22.5
0.5	45	2	3	83.0156	5.0006	con-0.5_ori-45
1	90	2	3	97.8171	5.0005	con-1_ori-90
0.5	22.5	2	3	114.8189	5.0004	con-0.5_ori-22.5
1	112.5	2	3	128.0202	5.0005	con-1_ori-112.5
0.5	90	2	3	141.8216	5.0005	con-0.5_ori-90
0.5	157.5	2	3	156.2231	5.0005	con-0.5_ori-157.5
0.5	112.5	2	3	171.6246	5.0004	con-0.5_ori-112.5
0.5	0	2	3	185.6261	5.0005	con-0.5_ori-0
0.5	45	2	3	200.2276	5.0005	con-0.5_ori-45
1	135	2	3	214.229	5.0005	con-1_ori-135
1	0	2	3	227.2304	5.0005	con-1_ori-0
1	67.5	2	3	242.4321	5.0004	con-1_ori-67.5
0.5	0	2	3	259.0336	5.0005	con-0.5_ori-0
0.5	112.5	2	3	274.6352	5.0005	con-0.5_ori-112.5
0.5	90	2	3	289.8368	5.0005	con-0.5_ori-90
1	22.5	2	3	304.6383	5.0005	con-1_ori-22.5
1	45	2	3	320.2399	5.0005	con-1_ori-45
1	112.5	2	3	336.2416	5.0005	con-1_ori-112.5
1	0	2	3	352.4433	5.0005	con-1_ori-0
1	135	2	3	366.8447	5.0005	con-1_ori-135
0.5	157.5	2	3	383.2464	5.0005	con-0.5_ori-157.5
1	45	2	3	396.8478	5.0005	con-1_ori-45
1	157.5	2	3	411.4493	5.0005	con-1_ori-157.5
0.5	135	2	3	424.8508	5.0004	con-0.5_ori-135
1	157.5	2	3	439.0521	5.0005	con-1_ori-157.5
0.5	22.5	2	3	455.0538	5.0005	con-0.5_ori-22.5
0.5	67.5	2	3	470.0553	5.0005	con-0.5_ori-67.5
