contrast,orientation,freq_change_feature,run,subject,trial,n_isi_sec,n_stim_sec,n_stim_flip,n_isi_flip,freq_change_flip,freq_change_vbl,trial_start,trial_end,rt,onset,duration,response
1,157.5,1,3,4,1,9,5,25,45,8,178590.572132009,178589.171964539,178594.172459979,NaN,5.00749921356328,5.0004954408214,
0.5,0,1,3,4,2,9.2,5,25,46,22,178607.373786223,178603.173369139,178608.173907244,NaN,19.0089038138685,5.00053810462123,
0.5,90,2,3,4,3,9.6,5,25,48,7,178618.574899447,178617.374783414,178622.37531581,NaN,33.2103180886188,5.00053239610861,
1,0,1,3,4,4,9,5,25,45,24,178636.576687721,178631.976239571,178636.976758747,NaN,47.8117742460163,5.00051917633391,
1,22.5,1,3,4,5,10,5,25,50,8,178647.377794817,178645.977638763,178650.978129096,NaN,61.8131734382187,5.00049033321557,
1,112.5,1,3,4,6,8.2,5,25,41,22,178665.179507317,178660.979125386,178665.979657181,NaN,76.8146600611799,5.00053179520182,
1,0,2,3,4,7,8,5,25,40,9,178675.780620662,178674.18043901,178679.180939258,NaN,90.0159736854548,5.00050024801749,
1,67.5,1,3,4,8,9.4,5,25,47,5,178687.981821918,178687.181738454,178692.182274455,NaN,103.017273128498,5.00053600149113,
1,135,2,3,4,9,9.4,5,25,47,14,178704.183437494,178701.583203865,178706.583679776,NaN,117.418738539738,5.00047591162729,
0.5,157.5,1,3,4,10,11,5,25,55,24,178720.585094892,178715.98465185,178720.985118147,NaN,131.820186524914,5.00046629723511,
0.5,22.5,2,3,4,11,11.6,5,25,58,20,178735.786599903,178731.986215688,178736.986617689,NaN,147.821750363306,5.00040200111107,
1,45,2,3,4,12,11.2,5,25,56,15,178751.388151603,178748.587882761,178753.588344251,NaN,164.423417436075,5.00046149006812,
0.5,135,1,3,4,13,8.4,5,25,42,24,178769.389979236,178764.789498637,178769.790055069,NaN,180.625033312303,5.00055643203086,
1,112.5,2,3,4,14,11.4,5,25,57,20,178781.991181213,178778.190809918,178783.191355834,NaN,194.026344593061,5.00054591629305,
1,135,1,3,4,15,8.8,5,25,44,8,178795.992499885,178794.592280437,178799.592981385,NaN,210.427815111936,5.00070094811963,
0.5,112.5,2,3,4,16,9.8,5,25,49,19,178811.994202831,178808.393823184,178813.394334248,NaN,224.2293578588,5.00051106419414,
1,67.5,2,3,4,17,11.8,5,25,59,6,178824.195240042,178823.195129177,178828.195791667,NaN,239.030663851649,5.0006624906091,
1,22.5,2,3,4,18,10.2,5,25,51,22,178844.197428815,178839.997006924,178844.997543827,NaN,255.832541599433,5.00053690283676,
0.5,157.5,2,3,4,19,10.6,5,25,53,14,178857.798760286,178855.198483392,178860.198997761,NaN,271.034018067206,5.00051436913782,
1,45,1,3,4,20,10.8,5,25,54,8,178872.200206168,178870.800087972,178875.800547959,NaN,286.635622646543,5.0004599878157,
1,90,1,3,4,21,9.8,5,25,49,10,178888.401650488,178886.601637629,178891.602127061,NaN,302.437172303733,5.00048943184083,
0.5,67.5,2,3,4,22,10.4,5,25,52,19,178905.0034774,178901.403081828,178906.403605211,NaN,317.238616503251,5.00052338262321,
1,157.5,2,3,4,23,9.6,5,25,48,20,178920.60505554,178916.804666818,178921.805159255,NaN,332.640201493283,5.00049243634567,
0.5,135,2,3,4,24,9.2,5,25,46,12,178933.60629309,178931.406141303,178936.406594981,NaN,347.24167597809,5.00045367836719,
0.5,22.5,1,3,4,25,8.6,5,25,43,11,178947.607563089,178945.607515318,178950.607996637,NaN,361.443049992638,5.00048131973017,
0.5,90,1,3,4,26,12,5,25,60,24,178963.809346916,178959.208873529,178964.209354247,NaN,375.044408203568,5.00048071882338,
0.5,67.5,1,3,4,27,10.4,5,25,52,7,178977.427417918,178976.227218059,178981.227731227,NaN,392.062752734142,5.00051316735335,
0.5,45,1,3,4,28,10.8,5,25,54,14,178994.245713716,178991.645461459,178996.645743881,NaN,407.480996133498,5.00028242231929,
0.5,0,2,3,4,29,10.6,5,25,53,6,179008.447089233,179007.446972658,179012.447453677,NaN,423.282507333206,5.00048101926222,
1,90,2,3,4,30,10.2,5,25,51,5,179023.848723196,179023.048546592,179028.049037826,NaN,438.884081266704,5.00049123453209,
0.5,45,2,3,4,31,11,5,25,55,11,179040.250258912,179038.250115297,179043.250657308,NaN,454.085649972403,5.00054201047169,
0.5,112.5,1,3,4,32,15,5,25,75,5,179055.051745175,179054.251671625,179059.252180586,NaN,470.087206299562,5.00050896106404,
