contrast	orientation	run	subject	onset	duration	trial_type
0.5	112.5	6	1	5.0019	5.0006	con-0.5_ori-112.5
0.5	135	6	1	20.6037	5.0005	con-0.5_ori-135
1	22.5	6	1	35.4054	5.0006	con-1_ori-22.5
0.5	45	6	1	51.0072	5.0006	con-0.5_ori-45
0.5	67.5	6	1	65.2088	5.0006	con-0.5_ori-67.5
1	135	6	1	81.2107	5.0005	con-1_ori-135
1	112.5	6	1	97.0125	5.0005	con-1_ori-112.5
1	135	6	1	111.0141	5.0006	con-1_ori-135
1	0	6	1	127.2159	5.0006	con-1_ori-0
0.5	135	6	1	142.4176	5.0006	con-0.5_ori-135
1	0	6	1	157.0193	5.0006	con-1_ori-0
1	112.5	6	1	172.8211	5.0006	con-1_ori-112.5
1	67.5	6	1	189.223	5.0006	con-1_ori-67.5
0.5	0	6	1	203.8247	5.0006	con-0.5_ori-0
0.5	157.5	6	1	219.0264	5.0006	con-0.5_ori-157.5
0.5	22.5	6	1	232.4279	5.0006	con-0.5_ori-22.5
1	45	6	1	245.6295	5.0005	con-1_ori-45
0.5	157.5	6	1	259.8312	5.0005	con-0.5_ori-157.5
1	90	6	1	274.2328	5.0005	con-1_ori-90
0.5	67.5	6	1	291.0346	5.0006	con-0.5_ori-67.5
1	45	6	1	306.0363	5.0006	con-1_ori-45
1	157.5	6	1	321.4381	5.0006	con-1_ori-157.5
1	67.5	6	1	337.4399	5.0006	con-1_ori-67.5
0.5	45	6	1	351.8416	5.0006	con-0.5_ori-45
0.5	112.5	6	1	366.6433	5.0339	con-0.5_ori-112.5
1	22.5	6	1	380.2782	5.0006	con-1_ori-22.5
0.5	90	6	1	394.0797	5.0006	con-0.5_ori-90
1	157.5	6	1	407.0813	5.0005	con-1_ori-157.5
1	90	6	1	423.6831	5.0006	con-1_ori-90
0.5	0	6	1	437.6848	5.0005	con-0.5_ori-0
0.5	22.5	6	1	453.0866	5.0004	con-0.5_ori-22.5
0.5	90	6	1	470.0883	5.0007	con-0.5_ori-90
