contrast,orientation,freq_change_feature,run,subject,trial,n_isi_sec,n_stim_sec,n_stim_flip,n_isi_flip,freq_change_flip,freq_change_vbl,trial_start,trial_end,rt,onset,duration,response
1,135,1,5,3,1,9.6,5,25,48,5,24557.0555781728,24556.2554538465,24561.2559631095,1.0752173982255,5.00334551258129,5.00050926303084,2@
1,45,2,5,3,2,8.4,5,25,42,19,24574.4572941638,24570.8569902285,24575.8574760564,0.839452651907777,19.6048818945419,5.00048582791715,1!
0.5,22.5,2,5,3,3,8.8,5,25,44,9,24585.8585063,24584.2583285537,24589.2589120279,0.703510369588912,33.0062202197551,5.00058347421873,1!
0.5,157.5,1,5,3,4,11.4,5,25,57,19,24601.6601376843,24598.0597400085,24603.060264294,0.696728908926161,46.8076316745392,5.00052428553681,2@
0.5,22.5,1,5,3,5,11.2,5,25,56,19,24618.061771352,24614.4614307617,24619.4620433796,NaN,63.2093224277924,5.00061261788869,
1,67.5,1,5,3,6,10,5,25,50,21,24634.6634949144,24630.6630763874,24635.6636126909,NaN,79.4109680534348,5.00053630354523,
1,157.5,1,5,3,7,10.6,5,25,53,19,24649.2648891835,24645.6646044769,24650.6650900044,NaN,94.4124961429734,5.00048552746375,
0.5,112.5,1,5,3,8,10.2,5,25,51,13,24663.6665063264,24661.2662276889,24666.2667387547,1.29537916660411,110.01411935503,5.00051106572937,2@
0.5,157.5,2,5,3,9,10.8,5,25,54,9,24678.0679945763,24676.4678402651,24681.4683044606,0.993007322871563,125.215731931152,5.00046419550563,1!
0.5,90,2,5,3,10,8,5,25,40,8,24693.6695498866,24692.2694016445,24697.2699070017,0.744513404431927,141.017293310568,5.00050535717673,1!
1,112.5,2,5,3,11,11.8,5,25,59,24,24709.8712889522,24705.2707242261,24710.271339548,NaN,154.018615892193,5.00061532193649,
0.5,135,2,5,3,12,11.6,5,25,58,17,24725.272811153,24722.0724721851,24727.0729928652,1.03511000531944,170.820363851159,5.00052068013611,1!
1,45,1,5,3,13,9.4,5,25,47,13,24741.0744506494,24738.6742131736,24743.6747813249,1.53554971413541,187.422104839683,5.00056815125936,2@
1,135,2,5,3,14,8.2,5,25,41,22,24757.2760800507,24753.0756903068,24758.0761653185,NaN,201.823581972869,5.00047501171139,
1,22.5,1,5,3,15,10.6,5,25,53,24,24770.8774385662,24766.2770267692,24771.2775462475,NaN,215.024918435291,5.00051947833708,
1,90,2,5,3,16,10.4,5,25,52,23,24786.2791296199,24781.8786920443,24786.87910967,NaN,230.626583710375,5.00041762572801,
1,22.5,2,5,3,17,9.2,5,25,46,21,24801.2805807942,24797.2801823973,24802.2806865527,NaN,246.028074063368,5.00050415537771,
1,90,1,5,3,18,9.6,5,25,48,17,24814.6819834158,24811.4817375874,24816.4821882627,0.7712099037999,260.22962925351,5.00045067524843,2@
0.5,45,1,5,3,19,9.2,5,25,46,9,24827.683353769,24826.0831745204,24831.0837108239,0.763065601189737,274.831066186467,5.00053630354523,2@
0.5,0,2,5,3,20,12,5,25,60,22,24844.4851675265,24840.2846308624,24845.2852699199,NaN,289.032522528505,5.00063905749994,
1,67.5,2,5,3,21,9,5,25,45,23,24861.6867828067,24857.2863686662,24862.2868704179,NaN,306.034260332257,5.00050175177239,
0.5,0,1,5,3,22,11,5,25,55,6,24872.2879733705,24871.2879027647,24876.2883110765,0.826657981655444,320.035794430798,5.00040831177103,2@
0.5,67.5,1,5,3,23,9,5,25,45,15,24890.0897354506,24887.2894630024,24892.289944624,1.12556713724189,336.0373546685,5.00048162161329,2@
0.5,90,1,5,3,24,10.2,5,25,51,23,24905.6914094388,24901.2908573916,24906.291458292,NaN,350.038749057712,5.00060090033003,
1,0,2,5,3,25,9.4,5,25,47,15,24919.2927481245,24916.4924576493,24921.4929503876,0.941825036454247,365.24034931538,5.0004927382688,1!
0.5,45,2,5,3,26,11,5,25,55,6,24931.8940438459,24930.8939149528,24935.8944245163,NaN,379.641806618856,5.00050956348059,
1,157.5,2,5,3,27,8.6,5,25,43,10,24948.6955941087,24946.8955397873,24951.8960965214,0.977851414776524,395.643431453347,5.00055673415409,1!
1,0,1,5,3,28,9.8,5,25,49,24,24965.0974248717,24960.4969556887,24965.4975665039,NaN,409.244847354792,5.00061081518288,
0.5,135,1,5,3,29,10.8,5,25,54,12,24977.4987280442,24975.2984704983,24980.2989779587,1.60206757785272,424.04636216443,5.00050746032866,2@
0.5,112.5,2,5,3,30,9.8,5,25,49,5,24991.9001973657,24991.1001117975,24996.1006649263,0.976588923182135,439.84800346359,5.00055312875338,1!
0.5,67.5,2,5,3,31,10.4,5,25,52,14,25008.5019227308,25005.9016227013,25010.9021692201,NaN,454.649514367378,5.00054651884784,
1,112.5,1,5,3,32,15,5,25,75,22,25025.5036509202,25021.3031488079,25026.3037911703,NaN,470.051040473943,5.00064236245089,
