contrast,orientation,freq_change_feature,run,subject,trial,n_isi_sec,n_stim_sec,n_stim_flip,n_isi_flip,freq_change_flip,freq_change_vbl,trial_start,trial_end,rt,onset,duration,response
1,112.5,2,5,1,1,9.8,5,25,49,10,10221.6960289036,10219.8958179852,10224.8963897485,0.824161583990644,5.00829612715279,5.00057176336304,1!
1,22.5,1,5,1,2,8.8,5,25,44,10,10236.4977393865,10234.6975197548,10239.6980858096,0.604861941532363,19.8099978968239,5.0005660547431,2@
1,0,1,5,1,3,11.8,5,25,59,20,10252.2995469158,10248.4991187693,10253.4996881291,0.750078718865552,33.6115969113362,5.00056935973407,2@
1,67.5,2,5,1,4,9,5,25,45,23,10269.7015242015,10265.3010353634,10270.3015897004,NaN,50.413513505393,5.00055433704983,
0.5,112.5,1,5,1,5,10.6,5,25,53,11,10281.3028437941,10279.3026217589,10284.3032467025,0.739392182194933,64.4150999008507,5.00062494366466,2@
0.5,0,1,5,1,6,10,5,25,50,13,10297.3046927861,10294.9044133642,10299.9049767148,0.820401706576376,80.0168915061749,5.00056335065892,2@
1,157.5,1,5,1,7,11,5,25,55,19,10313.5065237509,10309.9061184388,10314.9067058258,0.68198509749709,95.0185965808378,5.00058738695407,2@
0.5,135,2,5,1,8,9.2,5,25,46,21,10329.9084217168,10325.9078511552,10330.9085515128,NaN,111.02032929724,5.00070035753924,
0.5,22.5,2,5,1,9,9.8,5,25,49,20,10343.9100018027,10340.1096115134,10345.1102061112,0.623782711894819,125.222089655381,5.00059459784279,1!
0.5,90,1,5,1,10,10.4,5,25,52,22,10359.1117837935,10354.9112736232,10359.911855602,NaN,140.023751765166,5.00058197878752,
1,45,1,5,1,11,9,5,25,45,10,10372.1132734429,10370.3130213623,10375.3135979329,0.750156836822498,155.425499504252,5.00057657062098,2@
0.5,90,2,5,1,12,11.2,5,25,56,11,10386.3149097137,10384.3146507226,10389.3151690052,0.66664663642041,169.427128864587,5.00051828260621,1!
0.5,45,2,5,1,13,11.4,5,25,57,22,10404.7169639155,10400.5165006159,10405.5170913079,NaN,185.628978757924,5.00059069194504,
1,157.5,2,5,1,14,10.4,5,25,52,11,10418.918605294,10416.9184346363,10421.9189141604,0.987355106211908,202.030912778295,5.00047952408204,1!
0.5,0,2,5,1,15,10.2,5,25,51,10,10434.1204032088,10432.3201415137,10437.3206742181,0.583764083765345,217.432619655681,5.00053270438366,1!
1,112.5,1,5,1,16,11,5,25,55,22,10451.7223354265,10447.5219024727,10452.5224210558,NaN,232.634380614729,5.0005185830596,
0.5,157.5,2,5,1,17,9.2,5,25,46,9,10465.1238482108,10463.5237127062,10468.5242823664,0.572551452693006,248.636190848181,5.00056966018747,1!
1,135,1,5,1,18,9.6,5,25,48,14,10480.3256103717,10477.7252888862,10482.7259402698,0.667109034642635,262.837767028213,5.00065138358877,2@
1,0,2,5,1,19,11.6,5,25,58,5,10493.1271072319,10492.3270014722,10497.3275639215,1.01197608388793,277.439479614219,5.00056244929692,1!
0.5,157.5,1,5,1,20,12,5,25,60,8,10510.3290160142,10508.9288609801,10513.9294609861,1.02801340023507,294.041339122075,5.00060000600752,2@
0.5,135,1,5,1,21,8,5,25,40,17,10529.1311765766,10525.9308199381,10530.9313817865,0.543978307243378,311.043298080102,5.00056184839013,2@
0.5,67.5,1,5,1,22,9.6,5,25,48,17,10542.1326713337,10538.9323738846,10543.9328753418,0.735862452303991,324.04485202656,5.00050145720161,2@
1,135,2,5,1,23,9.4,5,25,47,10,10555.334174203,10553.5339870204,10558.5345482679,1.60642700477729,338.646465162396,5.00056124748335,1!
0.5,22.5,1,5,1,24,10.8,5,25,54,9,10569.5358218911,10567.9356638524,10572.936188745,0.707131869123259,353.048141994412,5.00052489258815,2@
1,45,2,5,1,25,10.2,5,25,51,8,10585.1375594147,10583.73745696,10588.7379914671,0.734526034311784,368.849935102004,5.00053450710584,1!
1,67.5,1,5,1,26,10.6,5,25,53,18,10602.339390079,10598.9391482138,10603.9395213773,0.687667578042237,384.051626355798,5.00037316347698,2@
1,22.5,2,5,1,27,8.4,5,25,42,17,10617.7496758105,10614.5410035153,10619.5498662981,0.757714148363448,399.653481657302,5.00886278280268,1!
1,90,2,5,1,28,8.2,5,25,41,23,10632.3513099781,10627.9508229426,10632.9514424781,NaN,413.063301084638,5.00061953549994,
0.5,112.5,2,5,1,29,9.4,5,25,47,19,10644.7527203077,10641.1523387315,10646.1529360334,NaN,426.26481687348,5.00059730192515,
0.5,67.5,2,5,1,30,10.8,5,25,54,17,10658.7543049004,10655.5539578764,10660.5545022985,0.598940600306378,440.666436018388,5.00054442207875,1!
0.5,45,1,5,1,31,8.6,5,25,43,6,10672.3558729682,10671.3557624012,10676.3563077247,0.76370609620426,456.468240543221,5.00054532343711,1!
1,90,1,5,1,32,15,5,25,75,18,10688.3576750894,10684.9573439894,10689.9579439954,NaN,470.06982213142,5.00060000600752,
