contrast	orientation	run	subject	onset	duration	trial_type
0.5	90	16	4	5.005	5.0006	con-0.5_ori-90
1	67.5	16	4	20.8069	5.0006	con-1_ori-67.5
0.5	135	16	4	35.6088	5.0005	con-0.5_ori-135
1	45	16	4	50.8106	5.0007	con-1_ori-45
0.5	0	16	4	65.0124	5.0006	con-0.5_ori-0
1	22.5	16	4	80.6143	5.0006	con-1_ori-22.5
1	45	16	4	94.6161	5.0006	con-1_ori-45
1	157.5	16	4	110.418	5.0006	con-1_ori-157.5
0.5	67.5	16	4	126.82	5.0006	con-0.5_ori-67.5
0.5	22.5	16	4	143.4219	5.0008	con-0.5_ori-22.5
1	90	16	4	157.2238	5.0006	con-1_ori-90
1	0	16	4	170.8254	5.0006	con-1_ori-0
1	112.5	16	4	185.4272	5.0006	con-1_ori-112.5
0.5	67.5	16	4	201.4292	5.0006	con-0.5_ori-67.5
0.5	112.5	16	4	216.8311	5.0006	con-0.5_ori-112.5
0.5	157.5	16	4	233.6332	5.0004	con-0.5_ori-157.5
1	135	16	4	249.6352	5.0006	con-1_ori-135
1	90	16	4	263.6369	5.0007	con-1_ori-90
0.5	45	16	4	278.0386	5.0006	con-0.5_ori-45
1	67.5	16	4	291.0402	5.0006	con-1_ori-67.5
1	135	16	4	307.2422	5.0006	con-1_ori-135
0.5	157.5	16	4	322.2442	5.0003	con-0.5_ori-157.5
1	112.5	16	4	337.6459	5.0005	con-1_ori-112.5
1	22.5	16	4	352.2478	5.0006	con-1_ori-22.5
1	0	16	4	367.4497	5.0006	con-1_ori-0
0.5	90	16	4	384.4517	5.0007	con-0.5_ori-90
0.5	135	16	4	397.8534	5.0006	con-0.5_ori-135
1	157.5	16	4	413.4553	5.0006	con-1_ori-157.5
0.5	112.5	16	4	428.2571	5.0006	con-0.5_ori-112.5
0.5	22.5	16	4	442.6589	5.0006	con-0.5_ori-22.5
0.5	45	16	4	456.8607	5.0004	con-0.5_ori-45
0.5	0	16	4	470.0623	5.0006	con-0.5_ori-0
