contrast,orientation,freq_change_feature,run,subject,trial,n_isi_sec,n_stim_sec,n_stim_flip,n_isi_flip,freq_change_flip,freq_change_vbl,trial_start,trial_end,rt,onset,duration,response
1,112.5,1,3,1,1,10.4,5,25,52,8,8596.05191328907,8594.65173632185,8599.6523198029,0.599759937505951,5.00274224078385,5.00058348105631,2@
0.5,0,1,3,1,2,10.8,5,25,54,5,8610.85360334105,8610.05352582399,8615.05400955443,0.705453835291337,20.4045317429318,5.00048373043319,2@
1,157.5,1,3,1,3,9.8,5,25,49,9,8627.45545954391,8625.85532734429,8630.85589279812,0.645758194874361,36.2063332632279,5.0005654538345,2@
1,135,1,3,1,4,10.8,5,25,54,23,8645.05762611543,8640.65705885888,8645.65758735691,NaN,51.0080647778141,5.00052849803251,
1,157.5,2,3,1,5,9,5,25,45,20,8660.25924766397,8656.45879367845,8661.45938346904,0.666082384399488,66.8097995973912,5.00058979058485,1!
1,90,1,3,1,6,10,5,25,50,7,8671.66055193342,8670.46041312382,8675.46099930896,0.722324610162104,80.811419042755,5.00058618513867,2@
1,135,2,3,1,7,11.2,5,25,56,23,8689.86266322146,8685.46212811345,8690.46267704233,NaN,95.8131340323889,5.00054892888329,
0.5,67.5,1,3,1,8,8.6,5,25,43,7,8702.86413574497,8701.66397500225,8706.66456599465,0.807959619025496,112.014980921191,5.00059099239843,2@
0.5,112.5,1,3,1,9,11.6,5,25,58,21,8719.26598503741,8715.26554367094,8720.26608809302,NaN,125.61654958988,5.00054442207693,
1,22.5,1,3,1,10,8.2,5,25,41,16,8734.86785205661,8731.86740107562,8736.8680512574,0.703701589398406,142.218406994562,5.0006501817752,2@
1,45,2,3,1,11,12,5,25,60,7,8746.26909803804,8745.068952318,8750.06950515278,0.735701108673311,155.419958236938,5.00055283477923,1!
0.5,135,2,3,1,12,9.2,5,25,46,14,8764.67126581138,8762.07090767058,8767.07143015954,0.5327124958676,172.42191358952,5.00052248895918,1!
0.5,157.5,1,3,1,13,10.6,5,25,53,10,8778.0727395367,8776.27264639606,8781.27309557432,0.816530661297293,186.623652314996,5.00044917825835,2@
1,67.5,1,3,1,14,8,5,25,40,19,8795.47455457741,8791.87431211129,8796.8748427125,0.823616561006929,202.225318030225,5.00053060120808,2@
0.5,45,2,3,1,15,9.6,5,25,48,17,8808.07613886969,8804.87579094433,8809.87644803654,0.574543160171743,215.226796863264,5.00065709220871,1!
0.5,157.5,2,3,1,16,10.2,5,25,51,9,8821.07762611544,8819.47742661419,8824.47802752156,0.603381305771109,229.828432533124,5.00060090737134,1!
1,112.5,2,3,1,17,11,5,25,55,12,8836.87941201214,8834.67916503921,8839.67973980711,0.70174803953887,245.030170958147,5.0005747678988,1!
1,67.5,2,3,1,18,11.4,5,25,57,8,8852.08117116846,8850.681015233,8855.68154042604,0.68611753748155,261.032021151939,5.00052519304154,1!
0.5,90,2,3,1,19,8.8,5,25,44,22,8871.28338431031,8867.08290118078,8872.08346363008,NaN,277.433907099721,5.00056244929692,
0.5,0,2,3,1,20,9.2,5,25,46,16,8883.88488147102,8880.88444310909,8885.88505783733,0.623702490760479,291.235449028032,5.00061472824018,1!
0.5,135,1,3,1,21,10.6,5,25,53,13,8897.48635489589,8895.08606886398,8900.08664723733,0.832462818856584,305.437074782922,5.00057837334498,2@
1,45,1,3,1,22,11.8,5,25,59,14,8913.28816663161,8910.68788240243,8915.68848931887,NaN,321.038888321365,5.00060691644285,
1,90,2,3,1,23,8.4,5,25,42,19,8931.09033530631,8927.48978848061,8932.49050235856,17.3750791695456,337.840794399543,5.00071387795651,2@
1,0,2,3,1,24,9,5,25,45,22,8945.0918144398,8940.89131478533,8945.89192260313,NaN,351.242320704263,5.00060781780485,
0.5,112.5,2,3,1,25,11,5,25,55,14,8957.49311360154,8954.89290749031,8959.89331550642,0.585507316047369,365.243913409247,5.00040801610521,1!
1,22.5,2,3,1,26,9.6,5,25,48,21,8974.89529910164,8970.89474626686,8975.89533725926,NaN,381.2457521858,5.00059099240025,
0.5,67.5,2,3,1,27,10.4,5,25,52,20,8989.29686506625,8985.49644232791,8990.49703632485,0.644331640778546,395.847448246852,5.000593996936,1!
0.5,22.5,1,3,1,28,9.4,5,25,47,8,9002.29833638795,9000.89817624613,9005.89873418862,0.931163657121942,411.249182165069,5.00055794249238,2@
0.5,90,1,3,1,29,9.4,5,25,47,14,9017.90010095244,9015.29982663822,9020.30039659886,0.759404801250639,425.650832557161,5.00056996064086,2@
1,0,1,3,1,30,9.8,5,25,49,9,9031.301650993,9029.70146681489,9034.70201934922,NaN,440.052472733829,5.00055253432583,
0.5,45,1,3,1,31,10.2,5,25,51,9,9046.10343388517,9044.50317759817,9049.50371480936,0.801652795722475,454.854183517111,5.0005372111882,2@
0.5,22.5,2,3,1,32,15,5,25,75,18,9063.10529489529,9059.70490009915,9064.70548117658,0.640906168315269,470.055906018088,5.00058107742734,1!
