contrast,orientation,freq_change_feature,run,subject,trial,n_isi_sec,n_stim_sec,n_stim_flip,n_isi_flip,freq_change_flip,freq_change_vbl,trial_start,trial_end,rt,onset,duration,response
1,0,1,17,4,1,10.4,5,25,52,13,264998.273356046,264995.873033776,265000.873593226,NaN,5.00617227383191,5.00055944960332,
1,22.5,2,17,4,2,9.6,5,25,48,7,265012.475049958,265011.274711404,265016.275519331,NaN,20.4078499016468,5.00080792699009,
0.5,90,1,17,4,3,9,5,25,45,24,265030.477238182,265025.876733595,265030.877287637,NaN,35.009872092749,5.00055404141312,
1,135,2,17,4,4,8.2,5,25,41,13,265042.278655194,265039.878440788,265044.878868938,NaN,49.011579285434,5.00042815023335,
1,0,2,17,4,5,9.8,5,25,49,23,265057.48058196,265053.080047568,265058.080639467,NaN,62.2131860656664,5.00059189891908,
1,45,1,17,4,6,9.2,5,25,46,5,265068.681787931,265067.881817016,265072.882338007,NaN,77.0149555129465,5.00052099121967,
1,157.5,2,17,4,7,10.8,5,25,54,15,265084.883950856,265082.083632012,265087.084244041,NaN,91.2167705093743,5.00061202945653,
1,22.5,1,17,4,8,10.4,5,25,52,21,265101.886017094,265097.885550786,265102.88613307,NaN,107.018689283403,5.00058228429407,
0.5,45,1,17,4,9,11.4,5,25,57,20,265117.087915918,265113.287428518,265118.288008699,NaN,122.420567015128,5.00058018107666,
0.5,135,2,17,4,10,10.6,5,25,53,20,265133.490038221,265129.68948412,265134.690121688,NaN,138.82262261695,5.00063756830059,
0.5,22.5,1,17,4,11,8,5,25,40,18,265148.691829782,265145.291399949,265150.292008974,NaN,154.424538446532,5.00060902489349,
1,157.5,1,17,4,12,10.6,5,25,53,13,265160.693306525,265158.293009493,265163.293596585,NaN,167.426147990918,5.00058709160658,
1,112.5,1,17,4,13,11.8,5,25,59,10,265175.695154331,265173.894911502,265178.89553585,NaN,183.028049999499,5.00062434823485,
0.5,67.5,2,17,4,14,11.2,5,25,56,15,265193.497344717,265190.69698441,265195.697588628,NaN,199.830122907646,5.00060421763919,
0.5,22.5,2,17,4,15,11.6,5,25,58,16,265209.899345937,265206.898973972,265211.899642187,NaN,216.032112469198,5.00066821480868,
1,90,1,17,4,16,9,5,25,45,8,265224.901183227,265223.500970624,265228.501643646,NaN,232.634109121514,5.00067302212119,
1,45,2,17,4,17,9.8,5,25,49,18,265240.90317375,265237.502737307,265242.503441577,NaN,246.635875804583,5.00070426956518,
0.5,0,1,17,4,18,11,5,25,55,21,265256.3050635,265252.304553626,265257.30516205,NaN,261.437692123,5.00060842401581,
0.5,157.5,2,17,4,19,11,5,25,55,5,265269.106678212,265268.306539041,265273.307139052,NaN,277.439677538234,5.00060001126258,
0.5,45,2,17,4,20,10.8,5,25,54,19,265287.909048873,265284.308508532,265289.309002182,NaN,293.441647029307,5.00049364974257,
0.5,135,1,17,4,21,9.6,5,25,48,18,265303.510879072,265300.110453446,265305.110876789,NaN,309.243591943057,5.00042334292084,
0.5,90,2,17,4,22,12,5,25,60,5,265315.512379551,265314.71224729,265319.712893571,NaN,323.845385787368,5.00064628152177,
1,67.5,1,17,4,23,9.4,5,25,47,7,265332.914484127,265331.714179224,265336.714961312,NaN,340.847317721404,5.0007820877363,
0.5,0,2,17,4,24,9.2,5,25,46,23,265350.516676977,265346.116058158,265351.116729677,NaN,355.249196654942,5.00067151983967,
0.5,67.5,1,17,4,25,8.8,5,25,44,7,265361.517843349,265360.317708203,265365.318477672,NaN,369.450846700871,5.00076946860645,
1,112.5,2,17,4,26,10.2,5,25,51,9,265375.719762003,265374.11956959,265379.120231195,NaN,383.252708087733,5.00066160480492,
1,90,2,17,4,27,10.2,5,25,51,20,265393.121899629,265389.321456997,265394.322054003,NaN,398.454595494142,5.00059700669954,
0.5,157.5,1,17,4,28,8.6,5,25,43,17,265407.723545949,265404.523315259,265409.523926387,NaN,413.656453756324,5.0006111281109,
0.5,112.5,2,17,4,29,8.4,5,25,42,21,265422.125520428,265418.125011755,265423.125717527,NaN,427.258150252746,5.0007057719049,
1,67.5,2,17,4,30,9.4,5,25,47,19,265435.127059666,265431.526472754,265436.527265057,NaN,440.659611251613,5.000792303239,
1,135,1,17,4,31,10,5,25,50,17,265449.12881433,265445.9284259,265450.92886006,NaN,455.061564397824,5.00043415935943,
0.5,112.5,1,17,4,32,15,5,25,75,9,265462.530481142,265460.930261388,265465.930859296,NaN,470.063399885374,5.00059790804517,
