contrast,orientation,freq_change_feature,run,subject,trial,n_isi_sec,n_stim_sec,n_stim_flip,n_isi_flip,freq_change_flip,freq_change_vbl,trial_start,trial_end,rt,onset,duration,response
1,67.5,1,15,1,1,10.4,5,25,52,13,162313.126885574,162310.726491543,162315.72729529,0.665063079824904,5.00445861442131,5.00080374645768,2@
1,112.5,1,15,1,2,10,5,25,50,22,162330.329574805,162326.128898997,162331.129692828,NaN,20.406866067904,5.00079383107368,
1,0,1,15,1,3,10.6,5,25,53,14,162343.731629211,162341.13124864,162346.131984482,0.499015673500253,35.4092157117266,5.00073584113852,2@
1,22.5,1,15,1,4,9.2,5,25,46,16,162359.734105952,162356.73369221,162361.734413028,0.521442452969495,51.0116592812119,5.00072081785765,2@
0.5,157.5,1,15,1,5,11.6,5,25,58,10,162372.736124181,162370.935869446,162375.936665381,1.30635990292649,65.2138365176797,5.00079593432019,2@
0.5,0,1,15,1,6,11,5,25,55,20,162391.338952047,162387.538440413,162392.539187071,0.614093836717075,81.81640748473,5.00074665792636,2@
1,157.5,1,15,1,7,10.8,5,25,54,19,162407.14144315,162403.540900629,162408.541671925,0.85244296854944,97.8188677000289,5.00077129612328,2@
1,45,2,15,1,8,9.6,5,25,48,14,162421.943722124,162419.343397741,162424.344120061,0.608174657245399,113.621364812541,5.00072232019738,1!
1,135,2,15,1,9,8.4,5,25,42,11,162435.945882475,162433.945605144,162438.946377342,0.563724924606504,128.223572215793,5.00077219752711,1!
0.5,112.5,2,15,1,10,9.8,5,25,49,19,162450.948230316,162447.347662255,162452.348431447,0.542292987956898,141.62562932595,5.00076919287676,1!
1,45,1,15,1,11,9.8,5,25,49,24,162466.750665232,162462.149979688,162467.150712225,NaN,156.427946759824,5.00073253602022,
0.5,0,2,15,1,12,8.8,5,25,44,17,162480.152767712,162476.952272484,162481.95306271,0.507488212722819,171.230239555502,5.00079022548744,1!
1,90,1,15,1,13,9.6,5,25,48,8,162492.15463601,162490.754379291,162495.755184841,0.610298651125049,185.032346362743,5.00080554923625,2@
0.5,135,2,15,1,14,8.2,5,25,41,20,162509.157250965,162505.356752852,162510.357417783,0.570423512777779,199.634719923662,5.00066493116901,1!
0.5,90,2,15,1,15,10.6,5,25,53,11,162520.559024736,162518.558700833,162523.559499772,0.576601092965575,212.836667904601,5.00079893897055,1!
0.5,135,1,15,1,16,11.4,5,25,57,21,162538.161763062,162534.161116159,162539.161878141,NaN,228.439083230274,5.00076198167517,
0.5,45,1,15,1,17,9.2,5,25,46,20,162554.364260896,162550.563672944,162555.564420804,0.544972242962103,244.841640015336,5.00074785976904,2@
1,90,2,15,1,18,9.4,5,25,47,5,162565.566043921,162564.765838162,162569.766610059,0.549970193795161,259.043805233145,5.00077189705917,1!
0.5,67.5,2,15,1,19,10.8,5,25,54,10,162580.968342005,162579.167903685,162584.168850153,0.546584543306381,273.445870756375,5.00094646777143,1!
1,112.5,2,15,1,20,11.2,5,25,56,20,162598.771141386,162594.970517979,162599.971292881,0.466530495497864,289.24848505063,5.00077490170952,1!
0.5,90,1,15,1,21,8,5,25,40,17,162614.373554608,162611.172940696,162616.173799729,0.533929517900106,305.450907767779,5.00085903218132,2@
0.5,22.5,2,15,1,22,11,5,25,55,18,162627.575582213,162624.175071601,162629.17582547,0.512724433065159,318.453038672364,5.00075386909884,1!
0.5,67.5,1,15,1,23,12,5,25,60,16,162643.17799814,162640.177629167,162645.178285385,0.602095329435542,334.455596238637,5.0006562176859,2@
1,22.5,2,15,1,24,10.2,5,25,51,14,162659.780565201,162657.180163898,162662.180957729,0.570384151738835,351.45813096952,5.00079383107368,1!
1,0,2,15,1,25,10.4,5,25,52,10,162674.182858176,162672.382532531,162677.383307433,1.02493416788639,366.660499602789,5.00077490170952,1!
1,157.5,2,15,1,26,11.8,5,25,59,16,162690.78534321,162687.784997374,162692.785657197,0.668300901044859,382.062964445271,5.00065982324304,1!
0.5,45,2,15,1,27,9.4,5,25,47,8,162705.987735881,162704.58751642,162709.588313256,0.514693987439387,398.865483491798,5.00079683572403,1!
0.5,22.5,1,15,1,28,8.6,5,25,43,19,162722.590262679,162718.989749003,162723.99050137,0.582980886771111,413.2677160741,5.00075236675912,2@
0.5,112.5,1,15,1,29,9,5,25,45,22,162736.792494601,162732.59184283,162737.592619835,NaN,426.869809901196,5.00077700498514,
1,135,1,15,1,30,10.2,5,25,51,7,162747.794181717,162746.593988457,162751.594767866,0.555729224870447,440.871955528622,5.0007794087287,2@
1,67.5,2,15,1,31,9,5,25,45,23,162766.197015832,162761.796366405,162766.79712418,NaN,456.074333476368,5.00075777515303,
0.5,157.5,2,15,1,32,15,5,25,75,9,162777.398770313,162775.798528859,162780.799308267,0.470732812449569,470.076495929883,5.0007794086996,1!
