trial,n_isi_sec,direction,wedgeorring,n_stim_sec,run_type,n_stim_flip,n_isi_flip,trial_start,trial_end,onset,duration
1,4,0,bar,28,multibar,420,60,349860.5867933,349888.5729964,15.9992819000036,27.9862031000084
2,4,90,bar,28,multibar,420,60,349892.5925182,NaN,48.0050067999982,NaN
3,4,180,bar,28,multibar,420,60,NaN,NaN,NaN,NaN
4,16,270,bar,28,multibar,420,240,NaN,NaN,NaN,NaN
5,4,45,bar,28,multibar,420,60,NaN,NaN,NaN,NaN
6,4,135,bar,28,multibar,420,60,NaN,NaN,NaN,NaN
7,4,225,bar,28,multibar,420,60,NaN,NaN,NaN,NaN
8,20,315,bar,28,multibar,420,300,NaN,NaN,NaN,NaN
