trial,n_isi_sec,direction,wedgeorring,n_stim_sec,run_type,n_stim_flip,n_isi_flip,trial_start,trial_end,onset,duration
1,0,CCW,wedge,32,wedgering,480,0,177942.166424849,NaN,22.0559368513059,NaN
2,0,CCW,wedge,32,wedgering,480,0,177974.270468661,NaN,54.1599806626327,NaN
3,4,expand,ring,28,wedgering,420,60,178006.299357835,178034.302828105,86.1888698366238,28.0034702703124
4,4,expand,ring,28,wedgering,420,60,178038.386497674,178066.390238956,118.276009675901,28.0037412818929
5,0,CW,wedge,32,wedgering,480,0,178070.49057063,NaN,150.380082631513,NaN
6,0,CW,wedge,32,wedgering,480,0,178102.577860697,NaN,182.467372698913,NaN
7,4,contract,ring,28,wedgering,420,60,178134.581850156,178162.585300296,214.471362157725,28.0034501397167
8,26,contract,ring,28,wedgering,420,390,178166.685807736,178194.6892738,246.575319738098,28.0034660639067
