trial,n_isi_sec,direction,wedgeorring,n_stim_sec,run_type,n_stim_flip,n_isi_flip,trial_start,trial_end,onset,duration
1,4,0,bar,28,multibar,420,60,6874.65500976475,6902.65837033921,16.2029543610852,28.0033605744675
2,4,90,bar,28,multibar,420,60,6906.75882342337,6934.76208394676,48.3067680197091,28.003260523391
3,4,180,bar,28,multibar,420,60,6938.85400054082,6966.85736532164,80.4019451371569,28.0033647808186
4,16,270,bar,28,multibar,420,240,6970.94953579906,6998.95253643001,112.497480395396,28.0030006309526
5,4,45,bar,28,multibar,420,60,7015.0712273533,7043.07443169185,156.619171949644,28.0032043385509
6,4,135,bar,28,multibar,420,60,7047.1165267554,7075.119714569,188.664471351741,28.0031878135987
7,4,225,bar,28,multibar,420,60,7079.12001291951,7107.12338431031,220.667957515849,28.0033713907997
8,20,315,bar,28,multibar,420,300,7111.21553105189,7139.21876122946,252.763475648228,28.0032301775682
