trial,n_isi_sec,direction,wedgeorring,n_stim_sec,run_type,n_stim_flip,n_isi_flip,trial_start,trial_end,onset,duration
1,0,CCW,wedge,32,wedgering,480,0,179194.682169148,NaN,22.0422771169688,NaN
2,0,CCW,wedge,32,wedgering,480,0,179226.727150608,NaN,54.0872585777252,NaN
3,4,expand,ring,28,wedgering,420,60,179258.822061929,179286.824942937,86.182169898646,28.0028810079675
4,4,expand,ring,28,wedgering,420,60,179290.916891528,179318.919686006,118.27699949735,28.0027944785834
5,0,CW,wedge,32,wedgering,480,0,179323.011781517,NaN,150.371889486327,NaN
6,0,CW,wedge,32,wedgering,480,0,179355.106666098,NaN,182.466774067259,NaN
7,4,contract,ring,28,wedgering,420,60,179387.209881836,179415.220984338,214.56998980575,28.0111025015649
8,26,contract,ring,28,wedgering,420,390,179419.304534771,179447.307498102,246.664642740274,28.0029633310623
