contrast	orientation	run	subject	onset	duration	trial_type
0.5	67.5	9	4	5.0069	5.0006	con-0.5_ori-67.5
1	22.5	9	4	21.0088	5.0004	con-1_ori-22.5
1	90	9	4	36.8106	5.0006	con-1_ori-90
1	45	9	4	53.6125	5.0006	con-1_ori-45
0.5	112.5	9	4	68.2225	5.0005	con-0.5_ori-112.5
1	135	9	4	84.6242	5.0007	con-1_ori-135
1	22.5	9	4	98.826	5.0006	con-1_ori-22.5
0.5	90	9	4	112.2275	5.0006	con-0.5_ori-90
1	67.5	9	4	127.6293	5.0004	con-1_ori-67.5
0.5	90	9	4	142.6311	5.0005	con-0.5_ori-90
0.5	112.5	9	4	158.6328	5.0004	con-0.5_ori-112.5
0.5	45	9	4	175.2347	5.0005	con-0.5_ori-45
0.5	67.5	9	4	189.6365	5.0003	con-0.5_ori-67.5
0.5	0	9	4	204.038	5.0006	con-0.5_ori-0
1	45	9	4	217.0396	5.0004	con-1_ori-45
1	0	9	4	232.8413	5.0007	con-1_ori-0
0.5	157.5	9	4	248.043	5.0006	con-0.5_ori-157.5
1	67.5	9	4	263.4448	5.0006	con-1_ori-67.5
0.5	45	9	4	277.4464	5.0006	con-0.5_ori-45
0.5	22.5	9	4	291.4479	5.0007	con-0.5_ori-22.5
0.5	157.5	9	4	307.6498	5.0006	con-0.5_ori-157.5
1	90	9	4	321.4515	5.0006	con-1_ori-90
1	112.5	9	4	336.2531	5.0006	con-1_ori-112.5
0.5	135	9	4	350.4546	5.0007	con-0.5_ori-135
1	112.5	9	4	365.6565	5.0006	con-1_ori-112.5
1	157.5	9	4	380.4582	5.0004	con-1_ori-157.5
1	0	9	4	395.0599	5.0005	con-1_ori-0
1	157.5	9	4	408.2614	5.0006	con-1_ori-157.5
1	135	9	4	421.8629	5.0006	con-1_ori-135
0.5	22.5	9	4	437.4647	5.0004	con-0.5_ori-22.5
0.5	0	9	4	454.475	5.0006	con-0.5_ori-0
0.5	135	9	4	470.0768	5.0006	con-0.5_ori-135
