contrast	orientation	run	subject	onset	duration	trial_type
0.5	135	3	3	5.0043	5.0006	con-0.5_ori-135
0.5	157.5	3	3	20.2059	5.0005	con-0.5_ori-157.5
0.5	112.5	3	3	36.6076	5.0005	con-0.5_ori-112.5
1	135	3	3	50.009	5.0005	con-1_ori-135
0.5	112.5	3	3	67.0107	5.0005	con-0.5_ori-112.5
0.5	67.5	3	3	81.0122	5.0005	con-0.5_ori-67.5
1	22.5	3	3	96.6138	5.0005	con-1_ori-22.5
1	45	3	3	111.2153	5.0005	con-1_ori-45
1	67.5	3	3	127.2169	5.0005	con-1_ori-67.5
1	0	3	3	142.2185	5.0006	con-1_ori-0
0.5	90	3	3	158.0201	5.0005	con-0.5_ori-90
0.5	45	3	3	171.2215	5.0005	con-0.5_ori-45
0.5	0	3	3	185.2229	5.0005	con-0.5_ori-0
1	90	3	3	199.0243	5.0005	con-1_ori-90
1	157.5	3	3	215.626	5.0005	con-1_ori-157.5
1	0	3	3	230.2275	5.0005	con-1_ori-0
1	67.5	3	3	244.429	5.0005	con-1_ori-67.5
1	112.5	3	3	260.0306	5.0005	con-1_ori-112.5
1	157.5	3	3	275.2321	5.0005	con-1_ori-157.5
0.5	67.5	3	3	290.0337	5.0005	con-0.5_ori-67.5
0.5	22.5	3	3	303.635	5.0005	con-0.5_ori-22.5
1	135	3	3	319.8367	5.0005	con-1_ori-135
1	22.5	3	3	334.0382	5.0005	con-1_ori-22.5
0.5	90	3	3	348.8397	5.0005	con-0.5_ori-90
0.5	22.5	3	3	364.2413	5.0006	con-0.5_ori-22.5
0.5	157.5	3	3	380.2429	5.0005	con-0.5_ori-157.5
1	45	3	3	393.2442	5.0005	con-1_ori-45
1	90	3	3	407.6458	5.0005	con-1_ori-90
0.5	45	3	3	423.0474	5.0005	con-0.5_ori-45
0.5	0	3	3	438.849	5.0005	con-0.5_ori-0
1	112.5	3	3	453.2504	5.0005	con-1_ori-112.5
0.5	135	3	3	470.0523	5.0004	con-0.5_ori-135
