contrast	orientation	run	subject	onset	duration	trial_type
0.5	0	15	3	5.0024	5.0006	con-0.5_ori-0
1	90	15	3	21.0041	5.0005	con-1_ori-90
1	112.5	15	3	37.0058	5.0005	con-1_ori-112.5
1	0	15	3	51.4073	5.0005	con-1_ori-0
1	90	15	3	65.4087	5.0005	con-1_ori-90
0.5	112.5	15	3	82.4105	5.0004	con-0.5_ori-112.5
1	67.5	15	3	98.6121	5.0005	con-1_ori-67.5
0.5	90	15	3	113.4136	5.0006	con-0.5_ori-90
1	45	15	3	128.2151	5.0005	con-1_ori-45
0.5	67.5	15	3	141.4165	5.0005	con-0.5_ori-67.5
0.5	22.5	15	3	156.018	5.0005	con-0.5_ori-22.5
1	135	15	3	170.6195	5.0006	con-1_ori-135
0.5	112.5	15	3	186.4211	5.0007	con-0.5_ori-112.5
0.5	45	15	3	200.2225	5.0005	con-0.5_ori-45
0.5	22.5	15	3	214.424	5.0005	con-0.5_ori-22.5
1	157.5	15	3	228.8254	5.0005	con-1_ori-157.5
1	67.5	15	3	241.8268	5.0005	con-1_ori-67.5
0.5	157.5	15	3	257.4284	5.0005	con-0.5_ori-157.5
1	22.5	15	3	272.83	5.0005	con-1_ori-22.5
1	112.5	15	3	286.8314	5.0005	con-1_ori-112.5
0.5	135	15	3	302.633	5.0003	con-0.5_ori-135
1	157.5	15	3	316.2344	5.0006	con-1_ori-157.5
0.5	90	15	3	332.8362	5.0004	con-0.5_ori-90
0.5	45	15	3	348.4377	5.0005	con-0.5_ori-45
1	135	15	3	363.4393	5.0005	con-1_ori-135
0.5	0	15	3	380.2411	5.0005	con-0.5_ori-0
0.5	157.5	15	3	395.4425	5.0005	con-0.5_ori-157.5
1	45	15	3	410.6441	5.0006	con-1_ori-45
0.5	135	15	3	427.0458	5.0003	con-0.5_ori-135
0.5	67.5	15	3	441.2473	5.0005	con-0.5_ori-67.5
1	0	15	3	454.6486	5.0006	con-1_ori-0
1	22.5	15	3	470.0502	5.0005	con-1_ori-22.5
