contrast,orientation,freq_change_feature,run,subject,trial,n_isi_sec,n_stim_sec,n_stim_flip,n_isi_flip,freq_change_flip,freq_change_vbl,trial_start,trial_end,rt,onset,duration,response
0.5,90,1,16,4,1,10.8,5,25,54,20,264436.254071859,264432.453619011,264437.454251772,NaN,5.00501822121441,5.00063276092988,
1,67.5,2,16,4,2,9.8,5,25,49,18,264451.656003072,264448.255546498,264453.256175954,NaN,20.8069457084639,5.0006294559571,
0.5,135,2,16,4,3,10.2,5,25,51,18,264466.457775524,264463.057400374,264468.057948106,NaN,35.6087995839771,5.0005477318191,
1,45,1,16,4,4,9.2,5,25,46,20,264482.05970247,264478.259212666,264483.259879379,NaN,50.8106118762516,5.00066671258537,
0.5,0,1,16,4,5,10.6,5,25,53,10,264494.261286416,264492.461041484,264497.461592521,NaN,65.0124406936811,5.00055103690829,
1,22.5,1,16,4,6,9,5,25,45,22,264512.26342236,264508.062937784,264513.063581361,NaN,80.6143369936035,5.00064357742667,
1,45,2,16,4,7,10.8,5,25,54,18,264525.465102752,264522.06468674,264527.065250997,NaN,94.6160859497613,5.00056425691582,
1,157.5,1,16,4,8,11.4,5,25,57,20,264541.66705085,264537.866591092,264542.867234068,NaN,110.41799030191,5.00064297649078,
0.5,67.5,1,16,4,9,11.6,5,25,58,11,264556.268855511,264554.268621155,264559.269245203,NaN,126.820020364947,5.00062404776691,
0.5,22.5,2,16,4,10,8.8,5,25,44,16,264573.871002391,264570.870496122,264575.8712716,NaN,143.42189533246,5.00077547773253,
1,90,2,16,4,11,8.6,5,25,43,7,264585.872479435,264584.672368927,264589.672968337,NaN,157.223768136697,5.00059941032669,
1,0,1,16,4,12,9.6,5,25,48,20,264602.074526684,264598.274044091,264603.274668439,NaN,170.825443300768,5.00062434817664,
1,112.5,2,16,4,13,11,5,25,55,12,264615.076110689,264612.875820809,264617.876455373,NaN,185.427220019046,5.00063456373755,
0.5,67.5,2,16,4,14,10.4,5,25,52,21,264632.878314296,264628.877813135,264633.878421859,NaN,201.42921234481,5.00060872448375,
0.5,112.5,1,16,4,15,11.8,5,25,59,5,264645.079789176,264644.279708593,264649.280330238,NaN,216.831107803446,5.00062164408155,
0.5,157.5,2,16,4,16,11,5,25,55,10,264662.882014415,264661.081835884,264666.08221506,NaN,233.633235094137,5.00037917587906,
1,135,2,16,4,17,9,5,25,45,6,264678.083851946,264677.083755499,264682.084349502,NaN,249.635154709453,5.00059400213649,
1,90,1,16,4,18,9.4,5,25,47,19,264694.68588285,264691.085477114,264696.086174473,NaN,263.636876324075,5.00069735909346,
0.5,45,1,16,4,19,8,5,25,40,19,264709.087538845,264705.487239771,264710.487850298,NaN,278.038638981059,5.00061052717501,
1,67.5,1,16,4,20,11.2,5,25,56,19,264722.089301021,264718.488831288,264723.489479072,NaN,291.040230498067,5.00064778380329,
1,135,1,16,4,21,10,5,25,50,9,264736.291036998,264734.690830164,264739.69146623,NaN,307.242229373776,5.00063606596086,
0.5,157.5,1,16,4,22,10.4,5,25,52,9,264751.292876391,264749.692785533,264754.693122946,NaN,322.24418474338,5.00033741246443,
1,112.5,1,16,4,23,9.6,5,25,48,17,264768.294914687,264765.094525656,264770.095001579,NaN,337.645924866141,5.00047592277406,
1,22.5,2,16,4,24,10.2,5,25,51,6,264780.696513595,264779.696430669,264784.697015658,NaN,352.247829879285,5.00058498838916,
1,0,2,16,4,25,12,5,25,60,10,264796.698535366,264794.898255581,264799.89888083,NaN,367.449654790747,5.00062524958048,
0.5,90,2,16,4,26,8.4,5,25,42,17,264815.100747205,264811.900326326,264816.900976513,NaN,384.451725535619,5.00065018743044,
0.5,135,1,16,4,27,10.6,5,25,53,15,264828.102342928,264825.301976011,264830.30258143,NaN,397.853375220962,5.00060541945277,
1,157.5,2,16,4,28,9.8,5,25,49,17,264844.104316325,264840.903907164,264845.904511381,NaN,413.455306373828,5.00060421758099,
0.5,112.5,2,16,4,29,9.4,5,25,47,6,264856.705968354,264855.705742111,264860.706359248,NaN,428.257141320559,5.00061713723699,
0.5,22.5,1,16,4,30,9.2,5,25,46,5,264870.907605781,264870.10748644,264875.108101173,NaN,442.658885649638,5.00061473360984,
0.5,45,2,16,4,31,8.2,5,25,41,11,264886.309606399,264884.309266583,264889.309701644,NaN,456.860665793181,5.00043506070506,
0.5,0,2,16,4,32,15,5,25,75,6,264898.511002259,264897.510895597,264902.511471572,NaN,470.062294807169,5.00057597470004,
