contrast	orientation	run	subject	onset	duration	trial_type
0.5	67.5	11	3	5.0042	5.0005	con-0.5_ori-67.5
0.5	157.5	11	3	18.4056	5.0005	con-0.5_ori-157.5
0.5	135	11	3	34.8072	5.0005	con-0.5_ori-135
0.5	90	11	3	51.409	5.0005	con-0.5_ori-90
1	45	11	3	67.0106	5.0005	con-1_ori-45
1	157.5	11	3	81.8121	5.0005	con-1_ori-157.5
1	67.5	11	3	94.8134	5.0006	con-1_ori-67.5
0.5	112.5	11	3	110.8151	5.0005	con-0.5_ori-112.5
0.5	45	11	3	125.8166	5.0005	con-0.5_ori-45
1	0	11	3	140.018	5.0004	con-1_ori-0
0.5	135	11	3	155.2196	5.0005	con-0.5_ori-135
1	45	11	3	169.421	5.0005	con-1_ori-45
0.5	0	11	3	185.2227	5.0005	con-0.5_ori-0
1	112.5	11	3	199.8242	5.0005	con-1_ori-112.5
1	157.5	11	3	216.0258	5.0006	con-1_ori-157.5
1	90	11	3	230.4273	5.0005	con-1_ori-90
1	22.5	11	3	243.6287	5.0005	con-1_ori-22.5
1	90	11	3	260.4304	5.0005	con-1_ori-90
0.5	157.5	11	3	277.4321	5.0005	con-0.5_ori-157.5
0.5	22.5	11	3	293.0338	5.0005	con-0.5_ori-22.5
0.5	112.5	11	3	308.4354	5.0005	con-0.5_ori-112.5
1	135	11	3	322.2368	5.0005	con-1_ori-135
1	112.5	11	3	335.8382	5.0005	con-1_ori-112.5
0.5	45	11	3	350.4396	5.0006	con-0.5_ori-45
1	135	11	3	365.2412	5.0005	con-1_ori-135
1	67.5	11	3	379.6427	5.0005	con-1_ori-67.5
0.5	22.5	11	3	393.6441	5.0005	con-0.5_ori-22.5
0.5	67.5	11	3	409.4457	5.0004	con-0.5_ori-67.5
1	0	11	3	424.8473	5.0006	con-1_ori-0
0.5	90	11	3	438.8487	5.0005	con-0.5_ori-90
1	22.5	11	3	454.0503	5.0005	con-1_ori-22.5
0.5	0	11	3	470.052	5.0004	con-0.5_ori-0
