contrast	orientation	run	subject	onset	duration	trial_type
1	22.5	16	3	5.0088	5.0005	con-1_ori-22.5
0.5	90	16	3	20.4104	5.0005	con-0.5_ori-90
0.5	135	16	3	34.4118	5.0006	con-0.5_ori-135
0.5	112.5	16	3	49.6135	5.0005	con-0.5_ori-112.5
1	90	16	3	63.8149	5.0005	con-1_ori-90
0.5	0	16	3	78.4164	5.0004	con-0.5_ori-0
0.5	45	16	3	93.2179	5.0005	con-0.5_ori-45
0.5	67.5	16	3	108.8195	5.0006	con-0.5_ori-67.5
0.5	112.5	16	3	124.4211	5.0005	con-0.5_ori-112.5
0.5	90	16	3	140.6227	5.0006	con-0.5_ori-90
1	157.5	16	3	154.8242	5.0005	con-1_ori-157.5
1	67.5	16	3	170.6258	5.0006	con-1_ori-67.5
1	0	16	3	187.4276	5.0005	con-1_ori-0
1	45	16	3	201.829	5.0005	con-1_ori-45
0.5	157.5	16	3	216.8304	5.0007	con-0.5_ori-157.5
0.5	135	16	3	230.432	5.0005	con-0.5_ori-135
0.5	45	16	3	243.8333	5.0005	con-0.5_ori-45
1	135	16	3	259.0349	5.0005	con-1_ori-135
1	67.5	16	3	273.6364	5.0005	con-1_ori-67.5
1	135	16	3	290.2381	5.0005	con-1_ori-135
1	90	16	3	304.2396	5.0005	con-1_ori-90
1	45	16	3	320.2412	5.0005	con-1_ori-45
1	112.5	16	3	337.2429	5.0005	con-1_ori-112.5
0.5	0	16	3	353.2446	5.0005	con-0.5_ori-0
1	157.5	16	3	368.6462	5.0005	con-1_ori-157.5
0.5	22.5	16	3	385.0478	5.0005	con-0.5_ori-22.5
1	112.5	16	3	398.0492	5.0005	con-1_ori-112.5
0.5	22.5	16	3	412.8507	5.0005	con-0.5_ori-22.5
0.5	157.5	16	3	427.2522	5.0005	con-0.5_ori-157.5
1	22.5	16	3	443.0538	5.0005	con-1_ori-22.5
0.5	67.5	16	3	456.8552	5.0088	con-0.5_ori-67.5
1	0	16	3	470.0649	5.0006	con-1_ori-0
