contrast	orientation	run	subject	onset	duration	trial_type
1	135	8	4	5.0091	5.0006	con-1_ori-135
1	157.5	8	4	20.4106	5.0006	con-1_ori-157.5
0.5	90	8	4	34.4124	5.0006	con-0.5_ori-90
0.5	112.5	8	4	48.014	5.0006	con-0.5_ori-112.5
0.5	67.5	8	4	64.6158	5.0006	con-0.5_ori-67.5
0.5	22.5	8	4	79.2175	5.0006	con-0.5_ori-22.5
1	67.5	8	4	95.6194	5.0006	con-1_ori-67.5
1	22.5	8	4	110.4211	5.0005	con-1_ori-22.5
1	67.5	8	4	125.8228	5.0006	con-1_ori-67.5
0.5	90	8	4	142.0247	5.0006	con-0.5_ori-90
0.5	112.5	8	4	155.8263	5.0007	con-0.5_ori-112.5
1	45	8	4	170.2277	5.0008	con-1_ori-45
0.5	135	8	4	184.4296	5.0006	con-0.5_ori-135
1	112.5	8	4	200.4313	5.0006	con-1_ori-112.5
0.5	157.5	8	4	215.6331	5.0006	con-0.5_ori-157.5
1	135	8	4	229.8347	5.0006	con-1_ori-135
1	0	8	4	243.2361	5.0008	con-1_ori-0
0.5	45	8	4	259.038	5.0005	con-0.5_ori-45
0.5	0	8	4	276.04	5.0006	con-0.5_ori-0
1	90	8	4	291.6418	5.0006	con-1_ori-90
0.5	157.5	8	4	306.2435	5.0006	con-0.5_ori-157.5
1	45	8	4	322.0453	5.0006	con-1_ori-45
1	90	8	4	335.0468	5.0006	con-1_ori-90
0.5	22.5	8	4	349.4484	5.0005	con-0.5_ori-22.5
1	0	8	4	362.65	5.0005	con-1_ori-0
0.5	135	8	4	377.6517	5.0088	con-0.5_ori-135
1	157.5	8	4	393.2617	5.0006	con-1_ori-157.5
0.5	67.5	8	4	408.4636	5.0005	con-0.5_ori-67.5
1	22.5	8	4	424.4654	5.0004	con-1_ori-22.5
1	112.5	8	4	438.4668	5.0007	con-1_ori-112.5
0.5	0	8	4	455.2687	5.0007	con-0.5_ori-0
0.5	45	8	4	470.0706	5.0006	con-0.5_ori-45
