contrast,orientation,freq_change_feature,run,subject,trial,n_isi_sec,n_stim_sec,n_stim_flip,n_isi_flip,freq_change_flip,freq_change_vbl,trial_start,trial_end,rt,onset,duration,response
0.5,0,1,17,2,1,9,5,25,45,18,6879.38164561963,6875.9812720399,6880.98179061688,0.622751168075411,5.00231707166859,5.00051857698327,2@
1,135,2,17,2,2,10.2,5,25,51,14,6892.58308423511,6889.98270218268,6894.98326612764,0.569459721500607,19.0037472144513,5.00056394495823,1!
1,157.5,2,17,2,3,9.6,5,25,48,18,6908.58461833365,6905.18432016691,6910.18477865386,0.61101197924927,34.2053651986771,5.00045848695117,1!
0.5,135,2,17,2,4,12,5,25,60,5,6920.5858937446,6919.78589140109,6924.78626816559,0.710957928264179,48.8069364328576,5.00037676450575,1!
0.5,112.5,1,17,2,5,9.2,5,25,46,7,6937.98765540409,6936.78754207429,6941.78807116703,0.553010074995655,65.8085871060612,5.00052909273927,2@
0.5,45,2,17,2,6,10,5,25,50,5,6951.78905964807,6950.98898189157,6955.9895001681,0.540699429955566,80.010026923339,5.00051827653351,1!
0.5,135,1,17,2,7,9,5,25,45,18,6969.39088536354,6965.99055564953,6970.99107062111,0.67082469664274,95.0116006813005,5.00051497158165,2@
1,67.5,2,17,2,8,10.6,5,25,53,18,6983.39233683828,6979.9920467837,6984.99255093907,0.560627388015746,109.013091815467,5.00050415537589,1!
0.5,112.5,2,17,2,9,8.4,5,25,42,6,6996.59367570431,6995.59359969042,7000.59419428129,0.87444037401292,124.614644722187,5.00059459087515,1!
1,0,1,17,2,10,10.2,5,25,51,18,7012.39528094945,7008.99496715929,7013.99546770927,0.509583609121364,138.016012191066,5.00050054997428,2@
1,22.5,2,17,2,11,11.2,5,25,56,15,7026.99682634491,7024.1965418787,7029.19706586378,0.554101009542137,153.217586910468,5.00052398508706,1!
1,112.5,1,17,2,12,11.6,5,25,58,22,7044.59862712302,7040.39817788993,7045.39872651193,NaN,169.419222921703,5.00054862200068,
0.5,90,1,17,2,13,11,5,25,55,23,7061.40036817163,7057.00002193286,7062.00041942843,NaN,186.021066964633,5.00039749556709,
0.5,22.5,2,17,2,14,10.4,5,25,52,9,7074.60170162955,7073.00151156478,7078.00205898498,0.776181452670244,202.022556596548,5.00054742019984,1!
1,157.5,1,17,2,15,9.2,5,25,46,15,7091.20341347441,7088.40317077077,7093.40369655855,0.504555575618724,217.424215802536,5.00052578778832,2@
1,22.5,1,17,2,16,11.8,5,25,59,8,7104.00473389279,7102.60459196013,7107.6051703267,0.571460719595962,231.625636991905,5.00057836656651,2@
0.5,157.5,1,17,2,17,9.4,5,25,47,11,7121.40652229235,7119.40630056013,7124.40686781004,0.585424741890165,248.4273455919,5.00056724991009,2@
1,90,1,17,2,18,8.8,5,25,44,12,7136.0080400464,7133.80779692213,7138.80830438246,0.487003877910865,262.828841953899,5.00050746032775,2@
0.5,0,2,17,2,19,9.6,5,25,48,13,7150.00945065992,7147.60923541743,7152.60972725434,0.677561089781193,276.630280449197,5.00049183691863,1!
1,90,2,17,2,20,9.8,5,25,49,24,7166.81117398198,7162.21072312646,7167.21133033624,NaN,291.231768158231,5.00060720978308,
1,112.5,2,17,2,21,8.2,5,25,41,17,7180.21259012378,7177.01227218742,7182.01278806035,0.624541250154834,306.033317219189,5.00051587293183,1!
1,0,2,17,2,22,10.8,5,25,54,18,7193.61395368681,7190.21362186965,7195.21414705653,0.57535755823028,319.234666901418,5.0005251868879,1!
1,135,1,17,2,23,11.4,5,25,57,17,7209.21556638311,7206.01523642874,7211.01576251698,0.669712430134496,335.036281460512,5.00052608823808,2@
1,45,1,17,2,24,10.8,5,25,54,13,7224.81720251453,7222.41695422251,7227.41742803242,0.866234178669401,351.437999254283,5.00047380990964,2@
0.5,67.5,1,17,2,25,9.4,5,25,47,9,7239.81871137525,7238.21859672347,7243.21895996772,1.18956692812844,367.239641755242,5.00036324424855,2@
1,45,2,17,2,26,8,5,25,40,6,7253.62016579441,7252.62005282515,7257.62057681023,1.12840879489795,381.641097856918,5.00052398508706,1!
0.5,157.5,2,17,2,27,10.6,5,25,53,16,7268.62169568665,7265.62135647841,7270.62188436935,0.591764240361044,394.642401510183,5.00052789093843,1!
0.5,45,1,17,2,28,8.6,5,25,43,8,7282.62325051625,7281.22299921973,7286.22350968456,0.635212939547273,410.244044251502,5.00051046482986,2@
0.5,22.5,1,17,2,29,10.4,5,25,52,17,7298.0247459769,7294.82444216169,7299.82488352298,0.541786759101342,423.845487193462,5.00044136129145,2@
1,67.5,1,17,2,30,9.8,5,25,49,11,7312.22619090183,7310.22600071687,7315.22645740112,0.568449007148047,439.247045748645,5.00045668424991,2@
0.5,90,2,17,2,31,11,5,25,55,16,7328.02779013796,7325.02752303777,7330.0280353053,0.531012616202133,454.048568069538,5.00051226753021,1!
0.5,67.5,2,17,2,32,15,5,25,75,11,7343.02947416114,7341.02913945965,7346.02962739072,0.56212543253514,470.050184491423,5.00048793106725,1!
