contrast,orientation,freq_change_feature,run,subject,trial,n_isi_sec,n_stim_sec,n_stim_flip,n_isi_flip,freq_change_flip,freq_change_vbl,trial_start,trial_end,rt,onset,duration,response
1,67.5,2,4,4,1,10.4,5,25,52,22,179585.337930307,179581.137519233,179586.137812471,NaN,5.00579266177374,5.00029323846684,
1,90,2,4,4,2,10.6,5,25,53,13,179598.939315258,179596.538897513,179601.539528757,NaN,20.4071709426935,5.00063124392182,
1,67.5,1,4,4,3,10.2,5,25,51,8,179613.540722142,179612.140581111,179617.140971395,NaN,36.0088545401813,5.00039028358879,
1,90,1,4,4,4,10.8,5,25,54,11,179629.342274503,179627.342115265,179632.342629033,NaN,51.2103886942205,5.00051376823103,
1,112.5,1,4,4,5,10.6,5,25,53,12,179645.343911651,179643.143700976,179648.144165771,NaN,67.0119744053227,5.00046479501179,
0.5,157.5,2,4,4,6,11.8,5,25,59,15,179661.54558972,179658.745269201,179663.745761036,NaN,82.613542630279,5.00049183543888,
0.5,135,1,4,4,7,9.4,5,25,47,22,179679.747340198,179675.546942042,179680.547441389,NaN,99.4152154717012,5.00049934667186,
1,112.5,2,4,4,8,8,5,25,40,18,179693.34867888,179689.94835157,179694.948872549,NaN,113.816624999366,5.00052097899606,
0.5,0,2,4,4,9,11.2,5,25,56,9,179704.549810732,179702.949718314,179707.950153965,NaN,126.817991743039,5.00043565142551,
0.5,90,1,4,4,10,8.2,5,25,41,8,179720.551264606,179719.151142203,179724.151761729,NaN,143.019415632181,5.00061952637043,
1,22.5,1,4,4,11,11,5,25,55,12,179734.552793592,179732.352590729,179737.353068143,NaN,156.220864158182,5.0004774138506,
0.5,112.5,1,4,4,12,11.4,5,25,57,21,179752.354588716,179748.354048509,179753.354675546,NaN,172.222321937996,5.00062703760341,
1,0,1,4,4,13,8.4,5,25,42,6,179765.7559021,179764.755829091,179769.756330541,NaN,188.624102520494,5.00050144980196,
1,45,1,4,4,14,9.8,5,25,49,12,179780.357328513,179778.157093201,179783.157724445,NaN,202.025366630725,5.00063124389271,
1,157.5,1,4,4,15,11.6,5,25,58,23,179797.367420604,179792.96694337,179797.967525641,NaN,216.835216799664,5.00058227067348,
1,135,1,4,4,16,9,5,25,45,13,179811.968842811,179809.568613748,179814.569174687,NaN,233.436887177377,5.00056093878811,
1,0,2,4,4,17,8.6,5,25,43,8,179824.970124828,179823.570016245,179828.570607529,NaN,247.438289674552,5.00059128412977,
0.5,22.5,1,4,4,18,9.8,5,25,49,18,179840.571674124,179837.171405102,179842.171920973,NaN,261.039678531291,5.00051587139023,
0.5,45,2,4,4,19,10.4,5,25,52,7,179853.172944003,179851.97284179,179856.973331823,NaN,275.841115219577,5.00049003274762,
0.5,157.5,1,4,4,20,10.8,5,25,54,17,179870.574681621,179867.374374502,179872.374884965,NaN,291.242647931445,5.00051046328736,
0.5,90,2,4,4,21,9.6,5,25,48,19,179886.776286381,179883.175926863,179888.176410286,NaN,307.044200292701,5.00048342286027,
0.5,67.5,1,4,4,22,9,5,25,45,20,179901.577778953,179897.777405254,179902.777902798,NaN,321.64567868333,5.0004975439806,
0.5,0,1,4,4,23,12,5,25,60,17,179914.979119678,179911.778808052,179916.7791746,NaN,335.647081480944,5.00036654807627,
0.5,112.5,2,4,4,24,9.2,5,25,46,7,179929.980728884,179928.780536837,179933.780984807,NaN,352.648810265993,5.00044796985458,
0.5,22.5,2,4,4,25,10.2,5,25,51,9,179944.582143579,179942.981745905,179947.982402386,NaN,366.850019333913,5.00065648162854,
1,45,2,4,4,26,8.8,5,25,44,6,179959.183524324,179958.183416463,179963.183984312,NaN,382.051689891901,5.0005678490852,
1,135,2,4,4,27,11,5,25,55,13,179974.385043155,179971.984783747,179976.985311036,NaN,395.853057176399,5.00052728844457,
0.5,67.5,2,4,4,28,9.6,5,25,48,15,179990.786646172,179987.986399864,179992.986919641,NaN,411.854673292983,5.00051977721159,
0.5,45,1,4,4,29,10,5,25,50,24,180007.188322499,180002.587841299,180007.588339144,NaN,426.456114728353,5.00049784441944,
0.5,135,2,4,4,30,9.2,5,25,46,20,180021.389503625,180017.589394021,180022.589649703,NaN,441.45766745013,5.00025568233104,
1,157.5,2,4,4,31,9.4,5,25,47,15,180034.591096366,180031.79079117,180036.799555876,NaN,455.659064599284,5.00876470588264,
1,22.5,2,4,4,32,15,5,25,75,7,180047.400643082,180046.200375021,180051.201034206,NaN,470.068648450018,5.00065918569453,
