contrast	orientation	run	subject	onset	duration	trial_type
1	67.5	15	1	5.0045	5.0008	con-1_ori-67.5
1	112.5	15	1	20.4069	5.0008	con-1_ori-112.5
1	0	15	1	35.4092	5.0007	con-1_ori-0
1	22.5	15	1	51.0117	5.0007	con-1_ori-22.5
0.5	157.5	15	1	65.2138	5.0008	con-0.5_ori-157.5
0.5	0	15	1	81.8164	5.0007	con-0.5_ori-0
1	157.5	15	1	97.8189	5.0008	con-1_ori-157.5
1	45	15	1	113.6214	5.0007	con-1_ori-45
1	135	15	1	128.2236	5.0008	con-1_ori-135
0.5	112.5	15	1	141.6256	5.0008	con-0.5_ori-112.5
1	45	15	1	156.4279	5.0007	con-1_ori-45
0.5	0	15	1	171.2302	5.0008	con-0.5_ori-0
1	90	15	1	185.0323	5.0008	con-1_ori-90
0.5	135	15	1	199.6347	5.0007	con-0.5_ori-135
0.5	90	15	1	212.8367	5.0008	con-0.5_ori-90
0.5	135	15	1	228.4391	5.0008	con-0.5_ori-135
0.5	45	15	1	244.8416	5.0007	con-0.5_ori-45
1	90	15	1	259.0438	5.0008	con-1_ori-90
0.5	67.5	15	1	273.4459	5.0009	con-0.5_ori-67.5
1	112.5	15	1	289.2485	5.0008	con-1_ori-112.5
0.5	90	15	1	305.4509	5.0009	con-0.5_ori-90
0.5	22.5	15	1	318.453	5.0008	con-0.5_ori-22.5
0.5	67.5	15	1	334.4556	5.0007	con-0.5_ori-67.5
1	22.5	15	1	351.4581	5.0008	con-1_ori-22.5
1	0	15	1	366.6605	5.0008	con-1_ori-0
1	157.5	15	1	382.063	5.0007	con-1_ori-157.5
0.5	45	15	1	398.8655	5.0008	con-0.5_ori-45
0.5	22.5	15	1	413.2677	5.0008	con-0.5_ori-22.5
0.5	112.5	15	1	426.8698	5.0008	con-0.5_ori-112.5
1	135	15	1	440.872	5.0008	con-1_ori-135
1	67.5	15	1	456.0743	5.0008	con-1_ori-67.5
0.5	157.5	15	1	470.0765	5.0008	con-0.5_ori-157.5
