contrast,orientation,freq_change_feature,run,subject,trial,n_isi_sec,n_stim_sec,n_stim_flip,n_isi_flip,freq_change_flip,freq_change_vbl,trial_start,trial_end,rt,onset,duration,response
0.5,135,1,8,3,1,10.2,5,25,51,18,262570.511109295,262567.110763958,262572.11136606,0.864440190722235,5.00686258223141,5.00060210208176,2@
1,0,1,8,3,2,9.2,5,25,46,10,262584.112597605,262582.312382242,262587.31285455,0.879902257584035,20.2084808668587,5.00047230767086,2@
0.5,90,1,8,3,3,9.4,5,25,47,21,262600.514184402,262596.513783001,262601.514306085,NaN,34.4098816256155,5.00052308378508,
0.5,157.5,1,8,3,4,10.2,5,25,51,17,262614.115600905,262610.915248417,262615.915785922,0.753999817883596,48.8113470412791,5.00053750531515,2@
1,22.5,2,8,3,5,10.6,5,25,53,10,262627.91700575,262626.116808414,262631.117346821,0.770861982484348,64.0129070386174,5.00053840666078,1!
0.5,45,1,8,3,6,9,5,25,45,23,262646.118872807,262641.718397976,262646.718933979,NaN,79.6144966002321,5.00053600309184,
0.5,90,2,8,3,7,10.4,5,25,52,7,262656.919991023,262655.719847648,262660.720379445,NaN,93.6159462722717,5.00053179683164,
1,135,2,8,3,8,8.4,5,25,42,24,262675.721933373,262671.121542607,262676.121975556,NaN,109.017641231825,5.00043294869829,
1,157.5,2,8,3,9,11.8,5,25,59,7,262685.722925159,262684.522826851,262689.523355944,0.709244160563685,122.418925476028,5.00052909273654,1!
1,135,1,8,3,10,9.8,5,25,49,9,262702.924685556,262701.324521631,262706.325050724,1.19225926202489,139.220620255335,5.00052909273654,2@
1,0,2,8,3,11,10,5,25,50,5,262716.926166475,262716.126046656,262721.126581157,0.928942935192026,154.022145280265,5.00053450086853,1!
0.5,112.5,1,8,3,12,9.6,5,25,48,16,262734.127973142,262731.127599683,262736.128105941,1.37383571808459,169.023698307166,5.00050625851145,2@
0.5,135,2,8,3,13,9.6,5,25,48,13,262748.129163826,262745.728889395,262750.729442524,0.745675545651466,183.624988019525,5.00055312877521,1!
0.5,67.5,1,8,3,14,9,5,25,45,17,262763.530971154,262760.330591926,262765.331085866,0.974051020632032,198.226690550451,5.00049394008238,2@
0.5,45,2,8,3,15,10.8,5,25,54,22,262778.532515768,262774.332011252,262779.33259052,NaN,212.228109877033,5.00057926791487,
1,90,2,8,3,16,8.2,5,25,41,15,262792.933940623,262790.133675686,262795.134200873,0.609338171372656,228.029774310824,5.00052518688608,1!
0.5,22.5,1,8,3,17,8.8,5,25,44,15,262806.135293911,262803.334981202,262808.335529824,0.959993558353744,241.231079826888,5.00054862198886,2@
1,45,1,8,3,18,8,5,25,40,23,262821.53684195,262817.136432917,262822.136927458,NaN,255.032531542005,5.00049454096006,
0.5,22.5,2,8,3,19,11,5,25,55,24,262834.73802338,262830.137698113,262835.138098313,NaN,268.033796737669,5.00040019961307,
1,157.5,1,8,3,20,10.8,5,25,54,22,262850.339826262,262846.139398661,262851.13992505,NaN,284.0354972856,5.00052638864145,
1,112.5,2,8,3,21,11,5,25,55,18,262865.341394612,262861.940951327,262866.94154682,0.807143743499182,299.837049951951,5.00059549219441,1!
0.5,67.5,2,8,3,22,10.4,5,25,52,15,262880.742944454,262877.942664194,262882.94324256,0.84048529912252,315.838762818312,5.00057836656924,1!
1,45,2,8,3,23,8.6,5,25,43,15,262896.144606364,262893.344234466,262898.344806824,1.31394788809121,331.24033309106,5.00057235755958,1!
1,67.5,2,8,3,24,10.6,5,25,53,12,262909.145868555,262906.945623628,262911.946183367,1.34289235563483,344.841722252429,5.00055973866256,1!
0.5,0,2,8,3,25,9.8,5,25,49,17,262925.747551857,262922.547251347,262927.547743184,0.588111667660996,360.443349971261,5.00049183692317,1!
1,112.5,1,8,3,26,11.6,5,25,58,5,262938.148823182,262937.348774268,262942.349267908,1.18604865670204,375.244872893032,5.00049363961443,2@
1,22.5,1,8,3,27,12,5,25,60,9,262955.550620595,262953.950509548,262958.95099748,1.17216605640715,391.846608173044,5.00048793107271,2@
1,90,1,8,3,28,11.2,5,25,56,19,262974.552571418,262970.952328173,262975.952750907,0.837868979084305,408.848426797893,5.00042273337021,2@
1,67.5,1,8,3,29,9.4,5,25,47,6,262988.153988821,262987.153889072,262992.154406748,1.03664079890586,425.049987696577,5.00051767559489,2@
0.5,157.5,2,8,3,30,11.4,5,25,57,5,263002.355425334,263001.555350882,263006.555874266,0.951219211739954,439.4514495068,5.00052338419482,1!
0.5,0,1,8,3,31,9.2,5,25,46,8,263019.357226533,263017.957041936,263022.957555706,1.1594690324273,455.853140560503,5.00051376980264,2@
0.5,112.5,2,8,3,32,15,5,25,75,22,263036.358947511,263032.158505489,263037.159008743,NaN,470.054604113335,5.00050325400662,
