contrast,orientation,freq_change_feature,run,subject,trial,n_isi_sec,n_stim_sec,n_stim_flip,n_isi_flip,freq_change_flip,freq_change_vbl,trial_start,trial_end,rt,onset,duration,response
0.5,45,2,16,2,1,9.2,5,25,46,14,6305.11414973054,6302.51391369689,6307.51443317523,0.592391279854382,5.00810674633794,5.00051947833435,1!
1,90,2,16,2,2,8.4,5,25,42,22,6320.91578892655,6316.71533939301,6321.7158681853,NaN,19.209532442459,5.00052879228861,
0.5,22.5,1,16,2,3,10.4,5,25,52,11,6332.11693009636,6330.11683184916,6335.11724106228,0.654970241913361,32.611024898606,5.00040921312393,2@
1,157.5,2,16,2,4,9.8,5,25,49,13,6347.92673042019,6345.52658097628,6350.52716595275,0.576704476316991,48.0207740257229,5.00058497647024,1!
1,90,1,16,2,5,9.6,5,25,48,9,6361.92836607088,6360.32818471916,6365.32868046194,0.743466335610719,62.8223777686107,5.00049574277182,2@
1,67.5,2,16,2,6,10.8,5,25,54,12,6377.12991615337,6374.92980702987,6379.93019190653,0.672837111845183,77.4240000793188,5.00038487666097,1!
0.5,22.5,2,16,2,7,9,5,25,45,10,6392.53142363203,6390.73129509945,6395.73182238949,0.556547575231889,93.2254881488934,5.00052729003892,1!
0.5,135,1,16,2,8,10.6,5,25,53,24,6409.33321665852,6404.73278503181,6409.73326214667,NaN,107.226978081259,5.00047711486059,
1,67.5,1,16,2,9,9.4,5,25,47,18,6423.73469799801,6420.33431780837,6425.33484900426,0.534085320035047,122.828510857818,5.00053119589029,2@
0.5,157.5,1,16,2,10,10.4,5,25,52,20,6438.5362095027,6434.73587456085,6439.7363300433,0.567703590289966,137.2300676103,5.00045548244907,2@
1,135,1,16,2,11,8.6,5,25,43,11,6452.13760377173,6450.1374502417,6455.13799435695,0.591493534763686,152.631643291144,5.00054411524798,2@
1,45,2,16,2,12,11,5,25,55,12,6465.93902033417,6463.73882798597,6468.73932583189,0.511969183427937,166.233021035418,5.00049784592284,1!
0.5,90,1,16,2,13,11,5,25,55,9,6481.34066752215,6479.74047054702,6484.74099302986,0.587395394519262,182.234663596467,5.00052248283555,2@
0.5,45,1,16,2,14,8.2,5,25,41,20,6499.54249852554,6495.74218131026,6500.74260855039,0.708624031386535,198.236374359703,5.00042724013383,2@
1,0,1,16,2,15,9.8,5,25,49,7,6510.14360736692,6508.9434736065,6513.94401351545,0.724531064895018,211.437666655951,5.00053990894503,2@
1,22.5,2,16,2,16,8,5,25,40,13,6526.14524602212,6523.74501455531,6528.74558601152,0.618023584736875,226.239207604754,5.00057145621304,1!
1,112.5,1,16,2,17,9.4,5,25,47,23,6541.14679484271,6536.74634705179,6541.74684609951,NaN,239.240540101234,5.00049904772277,
0.5,0,1,16,2,18,11.4,5,25,57,9,6552.74796016872,6551.14785092504,6556.14833404891,0.550674976317168,253.642043974487,5.0004831238648,2@
1,135,2,16,2,19,11.6,5,25,58,12,6569.74972951974,6567.54948609502,6572.55001939406,0.553641020341274,270.043679144462,5.00053329904222,1!
1,157.5,1,16,2,20,10.2,5,25,51,14,6586.75149406356,6584.15121927183,6589.15172252586,0.584729500210415,286.645412321281,5.00050325402572,2@
0.5,135,2,16,2,21,11.2,5,25,56,6,6600.3529177767,6599.35277806738,6604.35332789118,0.919461929809586,301.846971116825,5.00054982380061,1!
0.5,157.5,2,16,2,22,11.8,5,25,59,22,6619.75472240057,6615.55440536556,6620.55496300106,NaN,318.048598415005,5.00055763550517,
1,45,1,16,2,23,9.2,5,25,46,5,6633.15625631884,6632.35617375514,6637.35680530138,0.706249573736386,334.850366804583,5.00063154624604,2@
0.5,90,2,16,2,24,9,5,25,45,23,6650.95794629093,6646.55750390811,6651.55816519892,NaN,349.051696957552,5.00066129081188,
0.5,112.5,1,16,2,25,10.8,5,25,54,21,6664.55949378954,6660.55909238813,6665.55961427006,0.596719865374325,363.053285437572,5.00052188193513,2@
0.5,0,2,16,2,26,10.6,5,25,53,16,6679.36100920008,6676.36071956613,6681.36121440755,0.380514424762623,378.854912615572,5.00049484142073,1!
0.5,67.5,2,16,2,27,8.8,5,25,44,24,6696.56282307782,6691.96233466603,6696.96281598719,NaN,394.456527715476,5.00048132116353,
0.5,112.5,2,16,2,28,10,5,25,50,20,6709.56412102253,6705.76374161406,6710.76423735683,0.579410030048166,408.257934663507,5.00049574277091,1!
1,0,2,16,2,29,10.2,5,25,51,5,6721.5653552718,6720.76531417022,6725.76583725396,0.708174557939856,423.259507219667,5.00052308373597,1!
1,22.5,1,16,2,30,9.6,5,25,48,24,6740.56732592443,6735.96683631084,6740.96734887882,NaN,438.461029360291,5.00051256797997,
0.5,67.5,1,16,2,31,12,5,25,60,11,6752.56866142541,6750.56839793062,6755.56887895133,0.559973908907523,453.062590980066,5.00048102071287,2@
1,112.5,2,16,2,32,15,5,25,75,11,6769.57034875354,6767.570098779,6772.57061014518,0.52439670358126,470.064291828447,5.00051136618004,1!
