contrast	orientation	run	subject	onset	duration	trial_type
0.5	90	12	1	5.0033	5.0005	con-0.5_ori-90
0.5	45	12	1	21.0049	5.0005	con-0.5_ori-45
1	0	12	1	36.2065	5.0005	con-1_ori-0
1	90	12	1	51.8082	5.0005	con-1_ori-90
1	135	12	1	68.4099	5.0005	con-1_ori-135
0.5	67.5	12	1	85.2117	5.0005	con-0.5_ori-67.5
0.5	135	12	1	101.4134	5.0006	con-0.5_ori-135
1	67.5	12	1	115.4149	5.0005	con-1_ori-67.5
0.5	0	12	1	129.6164	5.0005	con-0.5_ori-0
1	135	12	1	144.4179	5.0005	con-1_ori-135
1	90	12	1	159.0195	5.0005	con-1_ori-90
1	112.5	12	1	174.6211	5.0006	con-1_ori-112.5
1	0	12	1	190.0227	5.0005	con-1_ori-0
0.5	112.5	12	1	204.2242	5.0005	con-0.5_ori-112.5
0.5	22.5	12	1	218.6258	5.0005	con-0.5_ori-22.5
0.5	157.5	12	1	233.2272	5.0005	con-0.5_ori-157.5
0.5	22.5	12	1	248.2288	5.0005	con-0.5_ori-22.5
1	157.5	12	1	264.6306	5.0005	con-1_ori-157.5
0.5	90	12	1	279.4321	5.0005	con-0.5_ori-90
1	45	12	1	293.2336	5.0005	con-1_ori-45
1	157.5	12	1	309.0352	5.0005	con-1_ori-157.5
1	45	12	1	326.037	5.0006	con-1_ori-45
0.5	67.5	12	1	341.2386	5.0005	con-0.5_ori-67.5
1	22.5	12	1	354.44	5.0005	con-1_ori-22.5
0.5	0	12	1	370.2417	5.0005	con-0.5_ori-0
1	112.5	12	1	383.243	5.0006	con-1_ori-112.5
0.5	157.5	12	1	396.6444	5.0005	con-0.5_ori-157.5
0.5	45	12	1	410.2459	5.0005	con-0.5_ori-45
1	22.5	12	1	424.2472	5.0008	con-1_ori-22.5
0.5	135	12	1	440.249	5.0005	con-0.5_ori-135
1	67.5	12	1	454.6505	5.0006	con-1_ori-67.5
0.5	112.5	12	1	470.0521	5.0005	con-0.5_ori-112.5
