contrast,orientation,freq_change_feature,run,subject,trial,n_isi_sec,n_stim_sec,n_stim_flip,n_isi_flip,freq_change_flip,freq_change_vbl,trial_start,trial_end,rt,onset,duration,response
1,22.5,2,2,2,1,8.6,5,25,43,18,85239.6329320286,85236.2325363323,85241.2332153555,0.500123185629491,5.01027638651431,5.00067902328738,1!
1,45,1,2,2,2,9,5,25,45,7,85251.0341945312,85249.8340488116,85254.8346163669,0.495256151029025,18.6117888658191,5.00056755529658,2@
0.5,157.5,1,2,2,3,10.4,5,25,52,24,85268.436110819,85263.8354675496,85268.8361844299,NaN,32.6132076038484,5.00071688034222,
0.5,135,2,2,2,4,10.2,5,25,51,7,85280.4374865923,85279.237313231,85284.23787658,0.493208264859277,48.0150532853004,5.00056334896362,1!
1,22.5,1,2,2,5,9.8,5,25,49,14,85297.0393322737,85294.4390113902,85299.4395717346,0.529502360062907,63.2167514444154,5.00056034444424,2@
0.5,157.5,2,2,2,6,9.6,5,25,48,14,85311.8409427007,85309.2406930244,85314.2412879209,0.52910245739622,78.0184330786433,5.00059489651176,1!
0.5,135,1,2,2,7,10.8,5,25,54,18,85327.2426597883,85323.8423061554,85328.8428244364,0.520356577355415,92.6200462096313,5.00051828104188,2@
0.5,0,2,2,2,8,10.4,5,25,52,5,85340.4441458278,85339.6440761227,85344.6445941033,NaN,108.421816176968,5.00051798060304,
1,67.5,2,2,2,9,10.8,5,25,54,11,85357.0459966169,85355.0457905063,85360.0463259132,0.565363202345907,123.823530560549,5.00053540685622,1!
1,45,2,2,2,10,10.6,5,25,53,6,85371.8476527126,85370.8475589714,85375.8481063963,0.617942439261242,139.625299025618,5.00054742497741,1!
1,0,1,2,2,11,9.6,5,25,48,11,85388.449511614,85386.44927005,85391.4498508252,0.468159215932246,155.227010104223,5.00058077523136,2@
0.5,112.5,1,2,2,12,11.8,5,25,59,16,85404.0512211903,85401.0508648533,85406.0514387181,0.636523040215252,169.828604907583,5.00057386481785,2@
1,135,2,2,2,13,9,5,25,45,14,85420.4530227052,85417.8527547013,85422.853329768,0.724811991676688,186.630494755591,5.00057506661688,2@
1,0,2,2,2,14,11.4,5,25,57,5,85432.6544038867,85431.8543023336,85436.8549591234,0.448793531846604,200.632042387864,5.00065678979445,1!
1,112.5,1,2,2,15,11.2,5,25,56,8,85449.656307255,85448.2561402033,85453.256717974,0.566059952354408,217.033880257542,5.00057777069742,2@
0.5,90,1,2,2,16,11,5,25,55,21,85468.4583830833,85464.457987387,85469.4584624028,0.529972869117046,233.23572744125,5.00047501584049,2@
0.5,22.5,2,2,2,17,9.2,5,25,46,5,85481.2598138395,85480.4597516457,85485.4603110888,0.600642368051922,249.237491699983,5.00055944308406,1!
0.5,67.5,2,2,2,18,11.6,5,25,58,6,85495.6614374863,85494.6613542609,85499.6618926723,NaN,263.439094315123,5.00053841139015,
0.5,112.5,2,2,2,19,10.6,5,25,53,19,85514.8635812169,85511.2631578789,85516.2637804171,0.559000513778301,280.040897933184,5.00062253816577,1!
1,157.5,1,2,2,20,12,5,25,60,6,85527.8650170807,85526.864919734,85531.8654563427,0.605840802090825,295.642659788296,5.00053660866979,2@
0.5,67.5,1,2,2,21,9.8,5,25,49,22,85548.0672416331,85543.8668041739,85548.8673314685,NaN,312.64454422814,5.00052729464369,
0.5,45,1,2,2,22,9.2,5,25,46,17,85561.8687198608,85558.6684356325,85563.668883908,0.590172189491568,327.446175686753,5.00044827554666,2@
0.5,0,1,2,2,23,10.2,5,25,51,9,85574.4702347438,85572.8700289336,85577.8705784617,0.543216527308687,341.647768987852,5.00054952815117,2@
1,90,2,2,2,24,10,5,25,50,13,85590.472062398,85588.0718013046,85593.0722615982,0.581341281300411,356.849541358824,5.0004602936533,1!
1,67.5,1,2,2,25,9.4,5,25,47,23,85607.4739720759,85603.0733615559,85608.0739101826,NaN,371.851101610126,5.00054862677644,
0.5,45,2,2,2,26,9.4,5,25,47,16,85620.4753154003,85617.4750494996,85622.4755317263,0.659416640875861,386.252789553851,5.00048222670739,1!
0.5,90,2,2,2,27,8.4,5,25,42,6,85632.8767581746,85631.8765664857,85636.8771205206,0.654431528324494,400.654306539946,5.00055403493752,1!
0.5,22.5,1,2,2,28,11,5,25,55,16,85648.278400149,85645.2780975931,85650.2786245873,0.538797467786935,414.055837647335,5.00052699417574,2@
1,90,1,2,2,29,8,5,25,40,24,85665.8803524912,85661.2798393179,85666.280430008,NaN,430.057579372107,5.00059069016424,
1,157.5,2,2,2,30,8.2,5,25,41,23,85678.6818736836,85674.2813310659,85679.2818887063,NaN,443.059071120166,5.0005576403637,
1,112.5,2,2,2,31,8.8,5,25,44,12,85689.6830139019,85687.4827831542,85692.4833404941,0.578866151292459,456.260523208475,5.0005573399103,1!
1,135,1,2,2,32,15,5,25,75,23,85705.6848968395,85701.2842890236,85706.2849914822,NaN,470.062029077817,5.00070245860843,
