contrast	orientation	run	subject	onset	duration	trial_type
0.8	0	9	1	5.1212	5.0004	con-0.8_ori-0
0.2	25.7143	9	1	20.9228	5.0006	con-0.2_ori-25.7143
0.8	154.2857	9	1	35.9245	5.0005	con-0.8_ori-154.286
0.8	77.1429	9	1	48.9259	5.0006	con-0.8_ori-77.1429
0.8	51.4286	9	1	63.7276	5.0005	con-0.8_ori-51.4286
0.2	51.4286	9	1	77.9293	5.0005	con-0.2_ori-51.4286
0.8	128.5714	9	1	92.5309	5.0005	con-0.8_ori-128.571
0.2	128.5714	9	1	107.9326	5.0007	con-0.2_ori-128.571
0.2	154.2857	9	1	124.5343	5.0006	con-0.2_ori-154.286
0.8	25.7143	9	1	140.1361	5.0005	con-0.8_ori-25.7143
0.2	77.1429	9	1	154.1376	5.0006	con-0.2_ori-77.1429
0.2	0	9	1	169.9394	5.0006	con-0.2_ori-0
0.2	102.8571	9	1	183.7577	5.0004	con-0.2_ori-102.857
0.8	102.8571	9	1	199.3593	5.0006	con-0.8_ori-102.857
0.8	154.2857	9	1	215.3612	5.0003	con-0.8_ori-154.286
0.2	128.5714	9	1	228.7626	5.0005	con-0.2_ori-128.571
0.2	77.1429	9	1	244.9644	5.0006	con-0.2_ori-77.1429
0.8	25.7143	9	1	259.3661	5.0005	con-0.8_ori-25.7143
0.8	77.1429	9	1	274.3677	5.0006	con-0.8_ori-77.1429
0.2	51.4286	9	1	289.5693	5.0006	con-0.2_ori-51.4286
0.2	102.8571	9	1	303.7709	5.0006	con-0.2_ori-102.857
0.8	128.5714	9	1	318.9727	5.0005	con-0.8_ori-128.571
0.2	25.7143	9	1	334.9744	5.0005	con-0.2_ori-25.7143
0.8	102.8571	9	1	348.9759	5.0006	con-0.8_ori-102.857
0.2	0	9	1	364.3777	5.0006	con-0.2_ori-0
0.8	51.4286	9	1	378.7794	5.0004	con-0.8_ori-51.4286
0.2	154.2857	9	1	395.7812	5.0007	con-0.2_ori-154.286
0.8	0	9	1	410.5828	5.0006	con-0.8_ori-0
